\relax 
\@writefile{toc}{\contentsline {chapter}{\numberline {H}Aproximaci\IeC {\'o}n de las funciones de la clase $C^{r}$}{35}}
\@writefile{lof}{\addvspace {10\p@ }}
\@writefile{lot}{\addvspace {10\p@ }}
\newlabel{H1}{{H}{35}}
\newlabel{H:P1}{{H.0.1}{35}}
\newlabel{eq:h.1}{{H.0.1}{35}}
\newlabel{eq:h.2}{{H.0.2}{35}}
\@setckpt{apendiceH}{
\setcounter{page}{37}
\setcounter{equation}{2}
\setcounter{enumi}{2}
\setcounter{enumii}{0}
\setcounter{enumiii}{0}
\setcounter{enumiv}{0}
\setcounter{footnote}{0}
\setcounter{mpfootnote}{0}
\setcounter{part}{0}
\setcounter{chapter}{8}
\setcounter{section}{0}
\setcounter{subsection}{0}
\setcounter{subsubsection}{0}
\setcounter{paragraph}{0}
\setcounter{subparagraph}{0}
\setcounter{figure}{0}
\setcounter{table}{0}
\setcounter{parentequation}{0}
\setcounter{lips@count}{0}
\setcounter{teo}{1}
}
