\relax 
\@writefile{toc}{\contentsline {chapter}{\numberline {F}La probabilidad condicional regular}{27}}
\@writefile{lof}{\addvspace {10\p@ }}
\@writefile{lot}{\addvspace {10\p@ }}
\newlabel{F1}{{F}{27}}
\newlabel{F:D1}{{F.0.1}{27}}
\newlabel{F:Pr2}{{F.0.2}{27}}
\newlabel{F:T3}{{F.0.3}{27}}
\newlabel{eq:f.1}{{F.0.1}{27}}
\newlabel{F:D4}{{F.0.4}{30}}
\newlabel{F:T5}{{F.0.5}{30}}
\newlabel{eq:f.2}{{F.0.2}{30}}
\newlabel{F:D6}{{F.0.6}{30}}
\newlabel{eq:f.3}{{F.0.3}{31}}
\newlabel{F:O7}{{F.0.7}{31}}
\newlabel{F:T8}{{F.0.8}{31}}
\newlabel{eq:f.4}{{F.0.4}{31}}
\newlabel{F:D9}{{F.0.9}{31}}
\newlabel{F:O10}{{F.0.10}{31}}
\newlabel{F:T11}{{F.0.11}{31}}
\newlabel{F:C12}{{F.0.12}{32}}
\newlabel{eq:f.5}{{F.0.5}{32}}
\@setckpt{apendiceF}{
\setcounter{page}{33}
\setcounter{equation}{5}
\setcounter{enumi}{2}
\setcounter{enumii}{0}
\setcounter{enumiii}{0}
\setcounter{enumiv}{0}
\setcounter{footnote}{0}
\setcounter{mpfootnote}{0}
\setcounter{part}{0}
\setcounter{chapter}{6}
\setcounter{section}{0}
\setcounter{subsection}{0}
\setcounter{subsubsection}{0}
\setcounter{paragraph}{0}
\setcounter{subparagraph}{0}
\setcounter{figure}{0}
\setcounter{table}{0}
\setcounter{parentequation}{0}
\setcounter{lips@count}{0}
\setcounter{teo}{12}
}
