\relax 
\citation{167}
\@writefile{toc}{\contentsline {chapter}{\numberline {J}Integrales y derivadas fracionarias}{39}}
\@writefile{lof}{\addvspace {10\p@ }}
\@writefile{lot}{\addvspace {10\p@ }}
\newlabel{J1}{{J}{39}}
\newlabel{eq:j.1}{{J.0.1}{39}}
\newlabel{eq:j.2}{{J.0.2}{39}}
\newlabel{eq:j.3}{{J.0.3}{39}}
\newlabel{eq:j.4}{{J.0.4}{39}}
\newlabel{eq:j.5}{{J.0.5}{39}}
\citation{167}
\citation{167}
\citation{167}
\citation{167}
\newlabel{eq:j.6}{{J.0.6}{40}}
\newlabel{eq:j.7}{{J.0.7}{40}}
\newlabel{eq:j.8}{{J.0.8}{40}}
\newlabel{eq:j.9}{{J.0.9}{40}}
\newlabel{J.L1}{{J.0.1}{40}}
\newlabel{J.L2}{{J.0.2}{40}}
\newlabel{eq:j.10}{{J.0.10}{40}}
\newlabel{eq:j.11}{{J.0.11}{40}}
\newlabel{J.L3}{{J.0.3}{40}}
\newlabel{J.L4}{{J.0.4}{40}}
\@setckpt{apendiceJ}{
\setcounter{page}{42}
\setcounter{equation}{11}
\setcounter{enumi}{2}
\setcounter{enumii}{0}
\setcounter{enumiii}{0}
\setcounter{enumiv}{0}
\setcounter{footnote}{0}
\setcounter{mpfootnote}{0}
\setcounter{part}{0}
\setcounter{chapter}{10}
\setcounter{section}{0}
\setcounter{subsection}{0}
\setcounter{subsubsection}{0}
\setcounter{paragraph}{0}
\setcounter{subparagraph}{0}
\setcounter{figure}{0}
\setcounter{table}{0}
\setcounter{parentequation}{0}
\setcounter{lips@count}{0}
\setcounter{teo}{4}
}
