\relax 
\@writefile{toc}{\contentsline {chapter}{\numberline {G}El lema de Gronwall}{33}}
\@writefile{lof}{\addvspace {10\p@ }}
\@writefile{lot}{\addvspace {10\p@ }}
\newlabel{G1}{{G}{33}}
\newlabel{G:L1}{{G.0.1}{33}}
\newlabel{eq:g.1}{{G.0.1}{33}}
\newlabel{eq:g.2}{{G.0.2}{33}}
\newlabel{eq:g.3}{{G.0.3}{33}}
\newlabel{eq:g.4}{{G.0.4}{33}}
\@setckpt{apendiceG}{
\setcounter{page}{35}
\setcounter{equation}{4}
\setcounter{enumi}{2}
\setcounter{enumii}{0}
\setcounter{enumiii}{0}
\setcounter{enumiv}{0}
\setcounter{footnote}{0}
\setcounter{mpfootnote}{0}
\setcounter{part}{0}
\setcounter{chapter}{7}
\setcounter{section}{0}
\setcounter{subsection}{0}
\setcounter{subsubsection}{0}
\setcounter{paragraph}{0}
\setcounter{subparagraph}{0}
\setcounter{figure}{0}
\setcounter{table}{0}
\setcounter{parentequation}{0}
\setcounter{lips@count}{0}
\setcounter{teo}{1}
}
