\relax 
\@writefile{toc}{\contentsline {chapter}{\numberline {A}El teorema de las clases mon\IeC {\'o}tonas}{1}}
\@writefile{lof}{\addvspace {10\p@ }}
\@writefile{lot}{\addvspace {10\p@ }}
\newlabel{A1}{{A}{1}}
\newlabel{A:D1}{{A.0.1}{1}}
\newlabel{A:T2}{{A.0.2}{1}}
\newlabel{A:T3}{{A.0.3}{1}}
\newlabel{A:C4}{{A.0.4}{1}}
\newlabel{A:T5}{{A.0.5}{2}}
\newlabel{A:C6}{{A.0.6}{2}}
\@setckpt{apendiceA}{
\setcounter{page}{3}
\setcounter{equation}{0}
\setcounter{enumi}{3}
\setcounter{enumii}{0}
\setcounter{enumiii}{0}
\setcounter{enumiv}{0}
\setcounter{footnote}{0}
\setcounter{mpfootnote}{0}
\setcounter{part}{0}
\setcounter{chapter}{1}
\setcounter{section}{0}
\setcounter{subsection}{0}
\setcounter{subsubsection}{0}
\setcounter{paragraph}{0}
\setcounter{subparagraph}{0}
\setcounter{figure}{0}
\setcounter{table}{0}
\setcounter{parentequation}{0}
\setcounter{lips@count}{0}
\setcounter{teo}{6}
}
