\relax 
\@writefile{toc}{\contentsline {chapter}{\numberline {D}Probabilidades en espacios de Hilbert}{9}}
\@writefile{lof}{\addvspace {10\p@ }}
\@writefile{lot}{\addvspace {10\p@ }}
\newlabel{D1}{{D}{9}}
\newlabel{eq:d.1}{{D.0.1}{9}}
\newlabel{eq:d.2}{{D.0.2}{9}}
\newlabel{D:O2}{{D.0.2}{9}}
\newlabel{D:P3}{{D.0.3}{9}}
\newlabel{PD3 (a)}{{a}{9}}
\newlabel{eq:d.3}{{D.0.3}{9}}
\newlabel{PD3 (b)}{{b}{9}}
\newlabel{eq:d.4}{{D.0.4}{9}}
\newlabel{Dem d(a)}{{a}{10}}
\newlabel{Dem d(b)}{{b}{10}}
\newlabel{D:D4}{{D.0.4}{12}}
\newlabel{eq:d.5}{{D.0.5}{12}}
\newlabel{eq:d.6}{{D.0.6}{12}}
\newlabel{eq:d.7}{{D.0.7}{12}}
\newlabel{D:D5}{{D.0.5}{12}}
\newlabel{eq:d.8}{{D.0.8}{12}}
\newlabel{eq:d.9}{{D.0.9}{12}}
\newlabel{D:T6}{{D.0.6}{12}}
\newlabel{T6 (a)}{{a}{12}}
\newlabel{eq:d.10}{{D.0.10}{12}}
\newlabel{eq:d.11}{{D.0.11}{12}}
\newlabel{T6 (b)}{{b}{13}}
\newlabel{Dem D6 (a)}{{a}{13}}
\newlabel{eq:d.12}{{D.0.12}{14}}
\newlabel{eq:d.13}{{D.0.13}{14}}
\newlabel{Dem D6(b)}{{b}{14}}
\newlabel{eq:d.14}{{D.0.14}{15}}
\newlabel{eq:d.15}{{D.0.15}{15}}
\newlabel{eq:d.16}{{D.0.16}{15}}
\newlabel{eq:d.17}{{D.0.17}{15}}
\newlabel{eq:d.18}{{D.0.18}{16}}
\newlabel{eq:d.19}{{D.0.19}{16}}
\newlabel{eq:d.20}{{D.0.20}{17}}
\citation{23}
\newlabel{eq:d.21}{{D.0.21}{18}}
\newlabel{D:O7}{{D.0.7}{18}}
\newlabel{D:T8}{{D.0.8}{18}}
\newlabel{D:L9}{{D.0.9}{19}}
\newlabel{eq:d.22}{{D.0.22}{19}}
\newlabel{eq:d.23}{{D.0.23}{19}}
\citation{39}
\newlabel{D:O10}{{D.0.10}{20}}
\newlabel{D:T11}{{D.0.11}{20}}
\newlabel{D:T11 a)}{{a}{20}}
\newlabel{D:T11 b)}{{b}{20}}
\newlabel{D:T11 c)}{{c}{20}}
\@setckpt{apendiceD}{
\setcounter{page}{21}
\setcounter{equation}{23}
\setcounter{enumi}{3}
\setcounter{enumii}{0}
\setcounter{enumiii}{0}
\setcounter{enumiv}{0}
\setcounter{footnote}{0}
\setcounter{mpfootnote}{0}
\setcounter{part}{0}
\setcounter{chapter}{4}
\setcounter{section}{0}
\setcounter{subsection}{0}
\setcounter{subsubsection}{0}
\setcounter{paragraph}{0}
\setcounter{subparagraph}{0}
\setcounter{figure}{0}
\setcounter{table}{0}
\setcounter{parentequation}{0}
\setcounter{lips@count}{0}
\setcounter{teo}{11}
}
