\relax 
\citation{23}
\@writefile{toc}{\contentsline {chapter}{\numberline {C}Operadores compactos}{3}}
\@writefile{lof}{\addvspace {10\p@ }}
\@writefile{lot}{\addvspace {10\p@ }}
\newlabel{C1}{{C}{3}}
\newlabel{C:T2}{{C.0.2}{3}}
\citation{170}
\citation{116}
\newlabel{C:D3}{{C.0.3}{4}}
\newlabel{C:D4}{{C.0.4}{4}}
\newlabel{C:O5}{{C.0.5}{4}}
\newlabel{C:T6}{{C.0.6}{4}}
\newlabel{eq:c.1}{{C.0.1}{4}}
\newlabel{C:Pr7}{{C.0.7}{4}}
\citation{175}
\citation{64}
\citation{100}
\citation{116}
\citation{170}
\newlabel{C:O8}{{C.0.8}{5}}
\newlabel{C:L9}{{C.0.9}{5}}
\newlabel{eq:c.2}{{C.0.2}{5}}
\newlabel{C:T10}{{C.0.10}{5}}
\newlabel{eq:c.3}{{C.0.3}{5}}
\newlabel{eq:c.4}{{C.0.4}{5}}
\newlabel{C:D11}{{C.0.11}{5}}
\newlabel{eq:c.5}{{C.0.5}{5}}
\newlabel{C:O12}{{C.0.12}{5}}
\newlabel{C:D13}{{C.0.13}{5}}
\newlabel{eq:c.6}{{C.0.6}{5}}
\newlabel{C:P14}{{C.0.14}{6}}
\newlabel{C:P15}{{C.0.15}{6}}
\newlabel{eq:c.7}{{C.0.7}{6}}
\newlabel{C:Pr16}{{C.0.16}{6}}
\newlabel{C:O17}{{C.0.17}{6}}
\newlabel{eq:c.8}{{C.0.8}{6}}
\newlabel{eq:c.9}{{C.0.9}{6}}
\newlabel{C:D18}{{C.0.18}{6}}
\newlabel{eq:c.10}{{C.0.10}{6}}
\newlabel{D:C.19}{{C.0.19}{7}}
\newlabel{eq:c.11}{{C.0.11}{7}}
\newlabel{D:C.20}{{C.0.20}{7}}
\newlabel{eq:c.12}{{C.0.12}{7}}
\newlabel{O:C.21}{{C.0.21}{7}}
\newlabel{eq:c.13}{{C.0.13}{7}}
\newlabel{O:C.22}{{C.0.22}{7}}
\newlabel{eq:c.14}{{C.0.14}{7}}
\newlabel{T:C.23}{{C.0.23}{7}}
\newlabel{T:C.24}{{C.0.24}{8}}
\newlabel{O:C.25}{{C.0.25}{8}}
\newlabel{O:C.26}{{C.0.26}{8}}
\newlabel{eq:c.15}{{C.0.15}{8}}
\newlabel{P:C.27}{{C.0.27}{8}}
\newlabel{eq:c.16}{{C.0.16}{8}}
\@setckpt{apendiceC}{
\setcounter{page}{9}
\setcounter{equation}{16}
\setcounter{enumi}{3}
\setcounter{enumii}{0}
\setcounter{enumiii}{0}
\setcounter{enumiv}{0}
\setcounter{footnote}{0}
\setcounter{mpfootnote}{0}
\setcounter{part}{0}
\setcounter{chapter}{3}
\setcounter{section}{0}
\setcounter{subsection}{0}
\setcounter{subsubsection}{0}
\setcounter{paragraph}{0}
\setcounter{subparagraph}{0}
\setcounter{figure}{0}
\setcounter{table}{0}
\setcounter{parentequation}{0}
\setcounter{lips@count}{0}
\setcounter{teo}{27}
}
