\relax 
\citation{9}
\citation{39}
\citation{150}
\@writefile{toc}{\contentsline {chapter}{\numberline {B}La convergencia d\IeC {\'e}bil en espacios m\IeC {\'e}tricos}{3}}
\@writefile{lof}{\addvspace {10\p@ }}
\@writefile{lot}{\addvspace {10\p@ }}
\newlabel{B1}{{B}{3}}
\newlabel{B:D1}{{B.0.1}{3}}
\newlabel{B:O2}{{B.0.2}{3}}
\newlabel{B:O3}{{B.0.3}{3}}
\newlabel{B:O4}{{B.0.4}{4}}
\newlabel{B:T5}{{B.0.5}{4}}
\newlabel{B:P6}{{B.0.6}{4}}
\newlabel{B:P7}{{B.0.7}{4}}
\newlabel{B:D8}{{B.0.8}{4}}
\newlabel{B:T9}{{B.0.9}{5}}
\newlabel{B:D10}{{B.0.10}{5}}
\newlabel{B:P11}{{B.0.11}{5}}
\newlabel{B:T12}{{B.0.12}{6}}
\newlabel{B:D13}{{B.0.13}{6}}
\newlabel{B:T14}{{B.0.14}{6}}
\newlabel{B:C15}{{B.0.15}{6}}
\citation{23}
\citation{84}
\citation{161}
\newlabel{B:C16}{{B.0.16}{7}}
\newlabel{B:T17}{{B.0.17}{7}}
\@setckpt{apendiceB}{
\setcounter{page}{8}
\setcounter{equation}{0}
\setcounter{enumi}{2}
\setcounter{enumii}{0}
\setcounter{enumiii}{0}
\setcounter{enumiv}{0}
\setcounter{footnote}{0}
\setcounter{mpfootnote}{0}
\setcounter{part}{0}
\setcounter{chapter}{2}
\setcounter{section}{0}
\setcounter{subsection}{0}
\setcounter{subsubsection}{0}
\setcounter{paragraph}{0}
\setcounter{subparagraph}{0}
\setcounter{figure}{0}
\setcounter{table}{0}
\setcounter{parentequation}{0}
\setcounter{lips@count}{0}
\setcounter{teo}{17}
}
