\relax 
\citation{15}
\citation{80}
\@writefile{toc}{\contentsline {chapter}{\numberline {I}Existencia de selecciones medibles y aplicaci\IeC {\'o}n a las funciones matriciales}{37}}
\@writefile{lof}{\addvspace {10\p@ }}
\@writefile{lot}{\addvspace {10\p@ }}
\newlabel{I1}{{I}{37}}
\newlabel{I:D1}{{I.0.1}{37}}
\newlabel{I:T2}{{I.0.2}{37}}
\newlabel{I:C3}{{I.0.3}{37}}
\citation{49}
\newlabel{I:P4}{{I.0.4}{38}}
\@setckpt{apendiceI}{
\setcounter{page}{39}
\setcounter{equation}{0}
\setcounter{enumi}{3}
\setcounter{enumii}{0}
\setcounter{enumiii}{0}
\setcounter{enumiv}{0}
\setcounter{footnote}{0}
\setcounter{mpfootnote}{0}
\setcounter{part}{0}
\setcounter{chapter}{9}
\setcounter{section}{0}
\setcounter{subsection}{0}
\setcounter{subsubsection}{0}
\setcounter{paragraph}{0}
\setcounter{subparagraph}{0}
\setcounter{figure}{0}
\setcounter{table}{0}
\setcounter{parentequation}{0}
\setcounter{lips@count}{0}
\setcounter{teo}{4}
}
