\relax 
\@writefile{toc}{\contentsline {chapter}{\numberline {E}Medidas Gaussianas}{21}}
\@writefile{lof}{\addvspace {10\p@ }}
\@writefile{lot}{\addvspace {10\p@ }}
\newlabel{E1}{{E}{21}}
\newlabel{E:D1}{{E.0.1}{21}}
\newlabel{eq:e.1}{{E.0.1}{21}}
\newlabel{eq:e.2}{{E.0.2}{21}}
\newlabel{E:P2}{{E.0.2}{21}}
\newlabel{eq:e.3}{{E.0.3}{21}}
\newlabel{eq:e.4}{{E.0.4}{21}}
\newlabel{E:C3}{{E.0.3}{22}}
\newlabel{E:P4}{{E.0.4}{23}}
\newlabel{eq:e.5}{{E.0.5}{23}}
\newlabel{E:T5}{{E.0.5}{23}}
\newlabel{eq:e.6}{{E.0.6}{23}}
\newlabel{eq:e.7}{{E.0.7}{23}}
\newlabel{eq:e.8}{{E.0.8}{23}}
\newlabel{eq:e.9}{{E.0.9}{23}}
\newlabel{eq:e.10}{{E.0.10}{23}}
\newlabel{eq:e.11}{{E.0.11}{23}}
\newlabel{eq:e.12}{{E.0.12}{24}}
\newlabel{E:T6}{{E.0.6}{24}}
\newlabel{eq:e.13}{{E.0.13}{24}}
\newlabel{eq:e.14}{{E.0.14}{24}}
\newlabel{E:07}{{E.0.7}{24}}
\newlabel{E:P8}{{E.0.8}{24}}
\newlabel{eq:e.15}{{E.0.15}{24}}
\newlabel{E:P9}{{E.0.9}{25}}
\@setckpt{apendiceE}{
\setcounter{page}{26}
\setcounter{equation}{15}
\setcounter{enumi}{4}
\setcounter{enumii}{0}
\setcounter{enumiii}{0}
\setcounter{enumiv}{0}
\setcounter{footnote}{0}
\setcounter{mpfootnote}{0}
\setcounter{part}{0}
\setcounter{chapter}{5}
\setcounter{section}{0}
\setcounter{subsection}{0}
\setcounter{subsubsection}{0}
\setcounter{paragraph}{0}
\setcounter{subparagraph}{0}
\setcounter{figure}{0}
\setcounter{table}{0}
\setcounter{parentequation}{0}
\setcounter{lips@count}{0}
\setcounter{teo}{9}
}
