\relax 
\@writefile{toc}{\contentsline {chapter}{\numberline {3}El movimiento Browniano}{105}}
\@writefile{lof}{\addvspace {10\p@ }}
\@writefile{lot}{\addvspace {10\p@ }}
\newlabel{chapter3}{{3}{105}}
\@writefile{toc}{\contentsline {section}{\numberline {3.1}Procesos Gaussianos y el Movimiento Browniano}{106}}
\newlabel{section3.1}{{3.1}{106}}
\@writefile{toc}{\contentsline {subsection}{\numberline {3.1.1}Procesos Gaussianos. Construcci\IeC {\'o}n y ejemplos}{106}}
\newlabel{subsection3.1.1}{{3.1.1}{106}}
\newlabel{def3.1.1}{{3.1.1}{106}}
\newlabel{def3.1.2}{{3.1.2}{106}}
\newlabel{eq:3.1.1}{{3.1.1}{106}}
\newlabel{eq:3.1.2}{{3.1.2}{106}}
\newlabel{obs3.1.3}{{3.1.3}{106}}
\newlabel{prob3.1.4}{{3.1.4}{106}}
\newlabel{teo3.1.5}{{3.1.5}{107}}
\newlabel{lema3.1.6}{{3.1.6}{107}}
\newlabel{eq:3.1.4}{{3.1.4}{108}}
\newlabel{eq:3.1.5}{{3.1.5}{108}}
\newlabel{prob3.1.7}{{3.1.7}{108}}
\@writefile{toc}{\contentsline {subsubsection}{\itshape  Ejemplos de procesos Gaussianos.}{108}}
\newlabel{def3.1.8}{{3.1.8}{108}}
\newlabel{eq:3.1.6}{{3.1.6}{108}}
\newlabel{eq:3.1.7}{{3.1.7}{109}}
\newlabel{teo3.1.9}{{3.1.9}{109}}
\newlabel{eq:3.1.8}{{3.1.8}{110}}
\newlabel{eq:3.1.9}{{3.1.9}{110}}
\newlabel{eq:3.1.10}{{3.1.10}{110}}
\newlabel{obs3.1.10}{{3.1.10}{110}}
\newlabel{eq:3.1.11}{{3.1.11}{110}}
\newlabel{eq:3.1.12}{{3.1.12}{110}}
\newlabel{prob3.1.11}{{3.1.11}{110}}
\newlabel{eq:3.1.13}{{3.1.13}{110}}
\newlabel{eq:3.1.14}{{3.1.14}{111}}
\newlabel{teo3.1.12}{{3.1.12}{111}}
\newlabel{eq:3.1.15}{{3.1.15}{111}}
\newlabel{eq:3.1.16}{{3.1.16}{111}}
\newlabel{eq:3.1.17}{{3.1.17}{111}}
\newlabel{eq:3.1.18}{{3.1.18}{111}}
\newlabel{eq:3.1.19}{{3.1.19}{111}}
\newlabel{eq:3.1.20}{{3.1.20}{112}}
\newlabel{eq:3.1.21}{{3.1.21}{112}}
\newlabel{prob3.1.13}{{3.1.13}{113}}
\newlabel{eq:3.1.22}{{3.1.22}{113}}
\newlabel{prob3.1.14}{{3.1.14}{113}}
\newlabel{prob3.1.15}{{3.1.15}{113}}
\newlabel{prob3.1.16}{{3.1.16}{113}}
\newlabel{eq:3.1.23}{{3.1.23}{114}}
\newlabel{prob3.1.17}{{3.1.17}{114}}
\newlabel{eq:3.1.24}{{3.1.24}{114}}
\newlabel{eq:3.1.25}{{3.1.25}{114}}
\newlabel{prob3.1.18}{{3.1.18}{114}}
\@writefile{toc}{\contentsline {subsection}{\numberline {3.1.2}Caracterizaciones del Movimiento Browniano}{115}}
\newlabel{subsection3.1.2}{{3.1.2}{115}}
\newlabel{prob3.1.19}{{3.1.19}{115}}
\newlabel{eq:3.1.26}{{3.1.26}{115}}
\newlabel{eq:3.1.27}{{3.1.27}{115}}
\newlabel{eq:3.1.28}{{3.1.28}{116}}
\newlabel{eq:3.1.29}{{3.1.29}{116}}
\newlabel{teo3.1.20}{{3.1.20}{116}}
\newlabel{eq:3.1.30}{{3.1.30}{116}}
\newlabel{eq:3.1.31}{{3.1.31}{116}}
\newlabel{eq:3.1.32}{{3.1.32}{116}}
\newlabel{eq:3.1.33}{{3.1.33}{116}}
\newlabel{eq:3.1.34}{{3.1.34}{117}}
\newlabel{eq:3.1.35}{{3.1.35}{117}}
\newlabel{obs3.1.21}{{3.1.21}{117}}
\newlabel{eq:3.1.36}{{3.1.36}{117}}
\newlabel{eq:3.1.37}{{3.1.37}{117}}
\newlabel{obs3.1.22}{{3.1.22}{117}}
\newlabel{prob3.1.23}{{3.1.23}{117}}
\newlabel{obs3.1.24}{{3.1.24}{117}}
\newlabel{eq:3.1.38}{{3.1.38}{117}}
\newlabel{eq:3.1.39}{{3.1.39}{117}}
\newlabel{lema3.1.25}{{3.1.25}{118}}
\newlabel{eq:3.1.40}{{3.1.40}{118}}
\newlabel{eq:3.1.41}{{3.1.41}{118}}
\newlabel{eq:3.1.42}{{3.1.42}{118}}
\newlabel{prob3.1.26}{{3.1.26}{119}}
\newlabel{eq:3.1.43}{{3.1.43}{119}}
\newlabel{eq:3.1.44}{{3.1.44}{120}}
\newlabel{eq:3.1.45}{{3.1.45}{121}}
\newlabel{eq:3.1.46}{{3.1.46}{121}}
\newlabel{eq:3.1.47}{{3.1.47}{122}}
\newlabel{eq:3.1.48}{{3.1.48}{123}}
\newlabel{eq:3.1.49}{{3.1.49}{123}}
\newlabel{eq:3.1.50}{{3.1.50}{124}}
\newlabel{eq:3.1.51}{{3.1.51}{126}}
\newlabel{eq:3.1.52}{{3.1.52}{126}}
\newlabel{eq:3.1.53}{{3.1.53}{126}}
\newlabel{eq:3.1.54}{{3.1.54}{127}}
\newlabel{eq:3.1.55}{{3.1.55}{127}}
\newlabel{eq:3.1.56}{{3.1.56}{127}}
\newlabel{teo3.1.27}{{3.1.27}{128}}
\newlabel{eq:3.1.57}{{3.1.57}{128}}
\newlabel{prob3.1.28}{{3.1.28}{129}}
\newlabel{eq:3.1.58}{{3.1.58}{129}}
\newlabel{prop3.1.29}{{3.1.29}{129}}
\newlabel{prop3.1.30}{{3.1.30}{130}}
\newlabel{obs3.1.31}{{3.1.31}{130}}
\newlabel{prop3.1.32}{{3.1.32}{130}}
\newlabel{prop3.1.33}{{3.1.33}{131}}
\newlabel{eq:3.1.59}{{3.1.59}{131}}
\newlabel{eq:3.1.60}{{3.1.60}{131}}
\newlabel{eq:3.1.61}{{3.1.61}{131}}
\newlabel{eq:3.1.62}{{3.1.62}{131}}
\newlabel{eq:3.1.63}{{3.1.63}{131}}
\newlabel{prop3.1.34}{{3.1.34}{132}}
\newlabel{eq:3.1.64}{{3.1.64}{132}}
\newlabel{eq:3.1.65}{{3.1.65}{132}}
\newlabel{prob3.1.35}{{3.1.35}{132}}
\newlabel{def3.1.36}{{3.1.36}{133}}
\newlabel{eq:3.1.66}{{3.1.66}{133}}
\newlabel{eq:3.1.67}{{3.1.67}{133}}
\newlabel{teo3.1.37}{{3.1.37}{133}}
\newlabel{eq:3.1.68}{{3.1.68}{133}}
\newlabel{eq:3.1.69}{{3.1.69}{133}}
\newlabel{eq:3.1.70}{{3.1.70}{133}}
\newlabel{eq:3.1.71}{{3.1.71}{134}}
\newlabel{eq:3.1.72}{{3.1.72}{134}}
\newlabel{eq:3.1.73}{{3.1.73}{134}}
\newlabel{teo3.1.38}{{3.1.38}{134}}
\newlabel{eq:3.1.74}{{3.1.74}{134}}
\newlabel{def3.1.39}{{3.1.39}{134}}
\newlabel{teo3.1.40}{{3.1.40}{135}}
\newlabel{eq:3.1.75}{{3.1.75}{135}}
\newlabel{eq:3.1.76}{{3.1.76}{135}}
\newlabel{eq:3.1.77}{{3.1.77}{135}}
\newlabel{eq:3.1.78}{{3.1.78}{135}}
\newlabel{eq:3.1.79}{{3.1.79}{135}}
\newlabel{eq:3.1.80}{{3.1.80}{135}}
\newlabel{prob3.1.41}{{3.1.41}{136}}
\newlabel{prob3.1.42}{{3.1.42}{136}}
\newlabel{prob3.1.43}{{3.1.43}{136}}
\newlabel{prob3.1.44}{{3.1.44}{136}}
\newlabel{prop3.1.45}{{3.1.45}{136}}
\newlabel{eq:3.1.81}{{3.1.81}{136}}
\@writefile{toc}{\contentsline {section}{\numberline {3.2}La medida de Wiener}{137}}
\newlabel{section3.2}{{3.2}{137}}
\@writefile{toc}{\contentsline {subsection}{\numberline {3.2.1}La medida de Wiener sobre el espacio de Wiener}{137}}
\newlabel{subsection3.2.1}{{3.2.1}{137}}
\newlabel{teo3.2.1}{{3.2.1}{137}}
\newlabel{def3.2.2}{{3.2.2}{137}}
\newlabel{prob3.2.3}{{3.2.3}{137}}
\newlabel{eq:3.2.1}{{3.2.1}{137}}
\newlabel{prob3.2.4}{{3.2.4}{138}}
\newlabel{eq:3.2.2}{{3.2.2}{138}}
\newlabel{def3.2.5}{{3.2.5}{138}}
\newlabel{lema3.2.6}{{3.2.6}{138}}
\newlabel{prob3.2.7}{{3.2.7}{138}}
\newlabel{def3.2.8}{{3.2.8}{138}}
\newlabel{eq:3.2.3}{{3.2.3}{138}}
\newlabel{obs3.2.9}{{3.2.9}{139}}
\newlabel{prob3.2.10}{{3.2.10}{139}}
\newlabel{prop3.2.11}{{3.2.11}{139}}
\newlabel{eq:3.2.4}{{3.2.4}{139}}
\newlabel{eq:3.2.5}{{3.2.5}{139}}
\newlabel{eq:3.2.6}{{3.2.6}{140}}
\newlabel{eq:3.2.7}{{3.2.7}{140}}
\newlabel{eq:3.2.8}{{3.2.8}{140}}
\newlabel{prop3.2.12}{{3.2.12}{140}}
\newlabel{teo3.2.13}{{3.2.13}{141}}
\newlabel{obs3.2.14}{{3.2.14}{141}}
\newlabel{lema3.2.15}{{3.2.15}{141}}
\newlabel{eq:3.2.9}{{3.2.9}{141}}
\newlabel{eq:3.2.10}{{3.2.10}{142}}
\newlabel{eq:3.2.11}{{3.2.11}{142}}
\newlabel{eq:3.2.12}{{3.2.12}{143}}
\newlabel{eq:3.2.13}{{3.2.13}{143}}
\newlabel{eq:3.2.14}{{3.2.14}{144}}
\newlabel{eq:3.2.15}{{3.2.15}{144}}
\newlabel{teo3.2.16}{{3.2.16}{145}}
\newlabel{obs3.2.17}{{3.2.17}{145}}
\@writefile{toc}{\contentsline {subsection}{\numberline {3.2.2}Procesos isonormales y la integral de Wiener}{145}}
\newlabel{subsection3.2.2}{{3.2.2}{145}}
\newlabel{def3.2.18}{{3.2.18}{145}}
\newlabel{eq:3.2.16}{{3.2.16}{145}}
\newlabel{prob3.2.19}{{3.2.19}{145}}
\newlabel{teo3.2.20}{{3.2.20}{146}}
\newlabel{prob3.2.21}{{3.2.21}{146}}
\newlabel{eq:3.2.17}{{3.2.17}{146}}
\newlabel{def3.2.22}{{3.2.22}{146}}
\newlabel{obs3.2.23}{{3.2.23}{146}}
\newlabel{eq:3.2.18}{{3.2.18}{147}}
\newlabel{eq:3.2.19}{{3.2.19}{147}}
\newlabel{teo3.2.24}{{3.2.24}{147}}
\newlabel{eq:3.2.20}{{3.2.20}{147}}
\newlabel{eq:3.2.21}{{3.2.21}{147}}
\newlabel{obs3.2.25}{{3.2.25}{148}}
\newlabel{eq:3.2.22}{{3.2.22}{148}}
\newlabel{prob3.2.26}{{3.2.26}{148}}
\newlabel{obs3.2.27}{{3.2.27}{148}}
\newlabel{eq:3.2.23}{{3.2.23}{148}}
\newlabel{prop3.2.28}{{3.2.28}{148}}
\newlabel{eq:3.2.24}{{3.2.24}{148}}
\newlabel{eq:3.2.25}{{3.2.25}{148}}
\newlabel{def3.2.29}{{3.2.29}{148}}
\newlabel{coro3.2.30}{{3.2.30}{149}}
\newlabel{obs3.2.31}{{3.2.31}{149}}
\newlabel{prop3.2.32}{{3.2.32}{149}}
\newlabel{eq:3.2.26}{{3.2.26}{150}}
\newlabel{eq:3.2.27}{{3.2.27}{150}}
\newlabel{obs3.2.33}{{3.2.33}{150}}
\newlabel{prop3.2.34}{{3.2.34}{150}}
\newlabel{eq:3.2.28}{{3.2.28}{150}}
\newlabel{prob3.2.35}{{3.2.35}{151}}
\newlabel{eq:3.2.29}{{3.2.29}{151}}
\newlabel{eq:3.2.30}{{3.2.30}{151}}
\newlabel{prop3.2.36}{{3.2.36}{151}}
\newlabel{eq:3.2.31}{{3.2.31}{151}}
\newlabel{eq:3.2.32}{{3.2.32}{151}}
\newlabel{eq:3.2.33}{{3.2.33}{152}}
\newlabel{eq:3.2.34}{{3.2.34}{153}}
\newlabel{eq:3.2.35}{{3.2.35}{153}}
\newlabel{eq:3.2.36}{{3.2.36}{153}}
\newlabel{eq:3.2.37}{{3.2.37}{153}}
\newlabel{eq:3.2.38}{{3.2.38}{153}}
\newlabel{obs3.2.37}{{3.2.37}{154}}
\@writefile{toc}{\contentsline {subsection}{\numberline {3.2.3}La medida de Wiener como medida Gaussiana}{154}}
\newlabel{subsection3.2.3}{{3.2.3}{154}}
\newlabel{eq:3.2.39}{{3.2.39}{154}}
\newlabel{teo3.2.38}{{3.2.38}{154}}
\newlabel{eq:3.2.40}{{3.2.40}{155}}
\newlabel{eq:3.2.41}{{3.2.41}{155}}
\newlabel{eq:3.2.42}{{3.2.42}{155}}
\newlabel{eq:3.2.43}{{3.2.43}{155}}
\newlabel{eq:3.2.44}{{3.2.44}{156}}
\newlabel{eq:3.2.45}{{3.2.45}{156}}
\newlabel{eq:3.2.46}{{3.2.46}{157}}
\newlabel{eq:3.2.47}{{3.2.47}{158}}
\newlabel{eq:3.2.48}{{3.2.48}{158}}
\newlabel{eq:3.2.49}{{3.2.49}{158}}
\newlabel{eq:3.2.50}{{3.2.50}{158}}
\newlabel{eq:3.2.51}{{3.2.51}{158}}
\newlabel{prob3.2.40}{{3.2.40}{159}}
\@writefile{toc}{\contentsline {subsection}{\numberline {3.2.4}Transformaci\IeC {\'o}n de la medida de Wiener por transformaciones lineales y translaciones}{159}}
\newlabel{subsection3.2.4}{{3.2.4}{159}}
\newlabel{def3.2.41}{{3.2.41}{159}}
\newlabel{eq:3.2.52}{{3.2.52}{159}}
\newlabel{obs3.2.42}{{3.2.42}{159}}
\newlabel{def3.2.43}{{3.2.43}{160}}
\newlabel{prob3.2.44}{{3.2.44}{160}}
\newlabel{eq:3.2.53}{{3.2.53}{160}}
\newlabel{obs3.2.45}{{3.2.45}{160}}
\newlabel{teo3.2.46}{{3.2.46}{160}}
\newlabel{eq:3.2.54}{{3.2.54}{160}}
\newlabel{eq:3.2.55}{{3.2.55}{160}}
\newlabel{def3.2.47}{{3.2.47}{162}}
\newlabel{eq:3.2.56}{{3.2.56}{162}}
\newlabel{prop3.2.48}{{3.2.48}{162}}
\newlabel{eq:3.2.57}{{3.2.57}{162}}
\newlabel{prob3.2.49}{{3.2.49}{163}}
\newlabel{prob3.2.50}{{3.2.50}{163}}
\newlabel{eq:3.2.58}{{3.2.58}{164}}
\newlabel{teo3.2.51}{{3.2.51}{164}}
\newlabel{eq:3.2.59}{{3.2.59}{164}}
\newlabel{lema3.2.52}{{3.2.52}{164}}
\citation{23}
\citation{116}
\newlabel{obs3.2.53}{{3.2.53}{165}}
\newlabel{teo3.2.54}{{3.2.54}{166}}
\newlabel{eq:3.2.60}{{3.2.60}{166}}
\newlabel{obs3.2.55}{{3.2.55}{166}}
\newlabel{teo3.2.56}{{3.2.56}{166}}
\newlabel{def3.2.57}{{3.2.57}{167}}
\newlabel{eq:3.2.61}{{3.2.61}{167}}
\newlabel{eq:3.2.62}{{3.2.62}{167}}
\newlabel{prob3.2.58}{{3.2.58}{167}}
\newlabel{eq:3.2.63}{{3.2.63}{167}}
\newlabel{eq:3.2.64}{{3.2.64}{167}}
\newlabel{teo3.2.59}{{3.2.59}{167}}
\newlabel{lema3.2.60}{{3.2.60}{168}}
\newlabel{eq:3.2.65}{{3.2.65}{168}}
\newlabel{eq:3.2.66}{{3.2.66}{168}}
\newlabel{eq:3.2.67}{{3.2.67}{168}}
\newlabel{eq:3.2.68}{{3.2.68}{168}}
\newlabel{eq:3.2.69}{{3.2.69}{169}}
\newlabel{eq:3.2.70}{{3.2.70}{170}}
\newlabel{eq:3.2.71}{{3.2.71}{171}}
\newlabel{eq:3.2.72}{{3.2.72}{171}}
\newlabel{eq:3.2.73}{{3.2.73}{171}}
\newlabel{eq:3.2.74}{{3.2.74}{171}}
\newlabel{eq:3.2.75}{{3.2.75}{172}}
\newlabel{eq:3.2.76}{{3.2.76}{172}}
\newlabel{eq:3.2.77}{{3.2.77}{172}}
\newlabel{eq:3.2.78}{{3.2.78}{172}}
\newlabel{eq:3.2.79}{{3.2.79}{173}}
\newlabel{eq:3.2.80}{{3.2.80}{173}}
\newlabel{eq:3.2.81}{{3.2.81}{173}}
\newlabel{eq:3.2.82}{{3.2.82}{173}}
\newlabel{eq:3.2.83}{{3.2.83}{173}}
\newlabel{eq:3.2.84}{{3.2.84}{174}}
\newlabel{eq:3.2.85}{{3.2.85}{174}}
\newlabel{obs3.2.61}{{3.2.61}{174}}
\newlabel{prob3.2.62}{{3.2.62}{174}}
\newlabel{prob3.2.63}{{3.2.63}{174}}
\@writefile{toc}{\contentsline {section}{\numberline {3.3}La propiedad fuerte de Markov del Movimiento Browniano}{175}}
\newlabel{section3.3}{{3.3}{175}}
\newlabel{teo3.3.1}{{3.3.1}{175}}
\newlabel{eq:3.3.1}{{3.3.1}{175}}
\newlabel{obs3.3.2}{{3.3.2}{175}}
\newlabel{eq:3.3.2}{{3.3.2}{177}}
\newlabel{eq:3.3.3}{{3.3.3}{177}}
\newlabel{obs3.3.3}{{3.3.3}{177}}
\newlabel{prob3.3.4}{{3.3.4}{177}}
\newlabel{teo3.3.5}{{3.3.5}{177}}
\newlabel{eq:3.3.4}{{3.3.4}{177}}
\newlabel{eq:3.3.5}{{3.3.5}{177}}
\newlabel{eq:3.3.6}{{3.3.6}{177}}
\newlabel{eq:3.3.7}{{3.3.7}{178}}
\newlabel{eq:3.3.8}{{3.3.8}{179}}
\newlabel{obs3.3.6}{{3.3.6}{179}}
\newlabel{obs3.3.7}{{3.3.7}{179}}
\newlabel{prob3.3.8}{{3.3.8}{179}}
\newlabel{eq:3.3.9}{{3.3.9}{179}}
\newlabel{prop3.3.9}{{3.3.9}{179}}
\newlabel{eq:3.3.10}{{3.3.10}{179}}
\newlabel{prob3.3.10}{{3.3.10}{180}}
\newlabel{prob3.3.11}{{3.3.11}{180}}
\newlabel{prob3.3.12}{{3.3.12}{180}}
\newlabel{prob3.3.13}{{3.3.13}{180}}
\@writefile{toc}{\contentsline {section}{\numberline {3.4}Las trayectorias del Movimiento Browniano}{181}}
\newlabel{section3.4}{{3.4}{181}}
\@writefile{toc}{\contentsline {subsection}{\numberline {3.4.1}Propiedades locales de las trayectorias}{181}}
\newlabel{subsection3.4.1}{{3.4.1}{181}}
\newlabel{teo3.4.1}{{3.4.1}{181}}
\newlabel{eq:3.4.1}{{3.4.1}{181}}
\newlabel{eq:3.4.2}{{3.4.2}{181}}
\newlabel{coro3.4.2}{{3.4.2}{181}}
\newlabel{eq:3.4.3}{{3.4.3}{181}}
\newlabel{eq:3.4.4}{{3.4.4}{181}}
\newlabel{eq:3.4.5}{{3.4.5}{182}}
\newlabel{eq:3.4.6}{{3.4.6}{182}}
\newlabel{obs3.4.3}{{3.4.3}{182}}
\newlabel{eq:3.4.7}{{3.4.7}{182}}
\newlabel{def3.4.4}{{3.4.4}{182}}
\newlabel{obs3.4.5}{{3.4.5}{182}}
\newlabel{def3.4.6}{{3.4.6}{183}}
\newlabel{teo3.4.7}{{3.4.7}{183}}
\newlabel{obs3.4.8}{{3.4.8}{183}}
\newlabel{obs3.4.9}{{3.4.9}{183}}
\newlabel{teo3.4.10}{{3.4.10}{184}}
\newlabel{eq:3.4.8}{{3.4.8}{184}}
\newlabel{lema3.4.11}{{3.4.11}{184}}
\newlabel{eq:3.4.9}{{3.4.9}{184}}
\newlabel{eq:3.4.10}{{3.4.10}{184}}
\newlabel{lema3.4.12}{{3.4.12}{185}}
\newlabel{eq:3.4.11}{{3.4.11}{185}}
\newlabel{eq:3.4.12}{{3.4.12}{185}}
\newlabel{eq:3.4.13}{{3.4.13}{185}}
\newlabel{eq:3.4.14}{{3.4.14}{185}}
\newlabel{eq:3.4.15}{{3.4.15}{185}}
\newlabel{eq:3.4.16}{{3.4.16}{186}}
\newlabel{eq:3.4.17}{{3.4.17}{186}}
\newlabel{eq:3.4.18}{{3.4.18}{186}}
\newlabel{eq:3.4.19}{{3.4.19}{186}}
\newlabel{eq:3.4.20}{{3.4.20}{187}}
\newlabel{eq:3.4.21}{{3.4.21}{187}}
\newlabel{coro3.4.13}{{3.4.13}{188}}
\newlabel{def3.4.14}{{3.4.14}{188}}
\newlabel{coro3.4.15}{{3.4.15}{188}}
\@writefile{toc}{\contentsline {subsection}{\numberline {3.4.2}La ley del logaritmo iterado}{188}}
\newlabel{subsection3.4.2}{{3.4.2}{188}}
\newlabel{teo3.4.16}{{3.4.16}{188}}
\newlabel{eq:3.4.22}{{3.4.22}{188}}
\newlabel{eq:3.4.23}{{3.4.23}{188}}
\newlabel{eq:3.4.24}{{3.4.24}{188}}
\newlabel{eq:3.4.25}{{3.4.25}{188}}
\newlabel{obs3.4.17}{{3.4.17}{188}}
\newlabel{obs3.4.18}{{3.4.18}{189}}
\newlabel{eq:3.4.26}{{3.4.26}{189}}
\newlabel{eq:3.4.27}{{3.4.27}{189}}
\newlabel{obs:3.4.19}{{3.4.19}{189}}
\newlabel{coro3.4.20}{{3.4.20}{189}}
\newlabel{eq:3.4.28}{{3.4.28}{189}}
\newlabel{eq:3.4.29}{{3.4.29}{189}}
\newlabel{eq:3.4.30}{{3.4.30}{189}}
\newlabel{eq:3.4.31}{{3.4.31}{190}}
\newlabel{eq:3.4.32}{{3.4.32}{191}}
\newlabel{eq:3.4.33}{{3.4.33}{191}}
\newlabel{prob3.4.21}{{3.4.21}{191}}
\newlabel{prob3.4.22}{{3.4.22}{191}}
\newlabel{teo3.4.23}{{3.4.23}{191}}
\newlabel{coro3.4.24}{{3.4.24}{193}}
\newlabel{obs3.4.25}{{3.4.25}{193}}
\newlabel{obs3.4.26}{{3.4.26}{193}}
\newlabel{prop3.4.27}{{3.4.27}{193}}
\newlabel{eq:3.4.34}{{3.4.34}{193}}
\newlabel{eq:3.4.35}{{3.4.35}{193}}
\@writefile{toc}{\contentsline {section}{\numberline {3.5}Movimiento Browniano en espacios de Hilber}{194}}
\newlabel{section3.5}{{3.5}{194}}
\@writefile{toc}{\contentsline {subsection}{\numberline {3.5.1}El caso de la covarianza nuclear}{194}}
\newlabel{subsection3.5.1}{{3.5.1}{194}}
\newlabel{def3.5.1}{{3.5.1}{194}}
\newlabel{def3.5.2}{{3.5.2}{194}}
\newlabel{teo3.5.3}{{3.5.3}{195}}
\newlabel{eq:3.5.1}{{3.5.1}{195}}
\newlabel{eq:3.5.2}{{3.5.2}{195}}
\newlabel{eq:3.5.3}{{3.5.3}{195}}
\newlabel{eq:3.5.4}{{3.5.4}{195}}
\newlabel{eq:3.5.5}{{3.5.5}{196}}
\newlabel{eq:3.5.6}{{3.5.6}{196}}
\newlabel{obs3.5.4}{{3.5.4}{198}}
\newlabel{teo3.5.5}{{3.5.5}{198}}
\newlabel{eq:3.5.7}{{3.5.7}{198}}
\newlabel{eq:3.5.8}{{3.5.8}{198}}
\newlabel{coro3.5.6}{{3.5.6}{198}}
\newlabel{obs3.5.7}{{3.5.7}{199}}
\newlabel{teo3.5.8}{{3.5.8}{199}}
\newlabel{eq:3.5.9}{{3.5.9}{200}}
\newlabel{obs3.5.9}{{3.5.9}{200}}
\newlabel{prob3.5.10}{{3.5.10}{200}}
\newlabel{prob3.5.11}{{3.5.11}{200}}
\newlabel{eq:3.5.10}{{3.5.10}{200}}
\newlabel{prop3.5.12}{{3.5.12}{201}}
\newlabel{eq:3.5.11}{{3.5.11}{201}}
\newlabel{eq:3.5.12}{{3.5.12}{201}}
\newlabel{eq:3.5.13}{{3.5.13}{201}}
\newlabel{eq:3.5.14}{{3.5.14}{201}}
\newlabel{eq:3.5.15}{{3.5.15}{202}}
\@writefile{toc}{\contentsline {subsection}{\numberline {3.5.2}El movimiento Browniano cil\IeC {\'\i }ndrico}{202}}
\newlabel{subsection3.5.2}{{3.5.2}{202}}
\newlabel{eq:3.5.16}{{3.5.16}{203}}
\newlabel{obs3.5.13}{{3.5.13}{203}}
\newlabel{eq:3.5.17}{{3.5.17}{203}}
\newlabel{eq:3.5.18}{{3.5.18}{203}}
\newlabel{teo3.5.14}{{3.5.14}{203}}
\newlabel{eq:3.5.19}{{3.5.19}{203}}
\newlabel{eq:3.5.20}{{3.5.20}{203}}
\newlabel{eq:3.5.21}{{3.5.21}{203}}
\newlabel{eq:3.5.22}{{3.5.22}{204}}
\newlabel{eq:3.5.23}{{3.5.23}{204}}
\newlabel{eq:3.5.24}{{3.5.24}{204}}
\newlabel{eq:3.5.25}{{3.5.25}{205}}
\newlabel{obs3.5.15}{{3.5.15}{205}}
\newlabel{def3.5.16}{{3.5.16}{205}}
\newlabel{def3.5.17}{{3.5.17}{205}}
\newlabel{eq:3.5.26}{{3.5.26}{205}}
\newlabel{def3.5.18}{{3.5.18}{205}}
\newlabel{obs3.5.19}{{3.5.19}{206}}
\newlabel{prob3.5.20}{{3.5.20}{206}}
\newlabel{eq:3.5.27}{{3.5.27}{206}}
\newlabel{prob3.5.21}{{3.5.21}{206}}
\newlabel{obs3.5.22}{{3.5.22}{206}}
\newlabel{def3.5.23}{{3.5.23}{206}}
\newlabel{eq:3.5.28}{{3.5.28}{206}}
\newlabel{def3.5.24}{{3.5.24}{206}}
\newlabel{obs3.5.25}{{3.5.25}{207}}
\newlabel{obs3.5.26}{{3.5.26}{207}}
\@writefile{toc}{\contentsline {subsection}{\numberline {3.5.3}El teorema de Fernique sobre la integrabilidad de las medidas Gaussianas}{207}}
\newlabel{subsection3.5.3}{{3.5.3}{207}}
\newlabel{teo3.5.27}{{3.5.27}{207}}
\newlabel{eq:3.5.29}{{3.5.29}{207}}
\newlabel{eq:3.5.30}{{3.5.30}{207}}
\newlabel{eq:3.5.31}{{3.5.31}{207}}
\newlabel{eq:3.5.32}{{3.5.32}{207}}
\newlabel{eq:3.5.33}{{3.5.33}{208}}
\newlabel{eq:3.5.34}{{3.5.34}{208}}
\newlabel{eq:3.5.35}{{3.5.35}{208}}
\newlabel{coro3.5.28}{{3.5.28}{209}}
\newlabel{eq:3.5.36}{{3.5.36}{209}}
\newlabel{eq:3.5.37}{{3.5.37}{209}}
\newlabel{obs3.5.29}{{3.5.29}{209}}
\newlabel{eq:3.5.38}{{3.5.38}{209}}
\newlabel{obs3.5.30}{{3.5.30}{209}}
\newlabel{teo3.5.31}{{3.5.31}{210}}
\newlabel{eq:3.5.39}{{3.5.39}{210}}
\newlabel{eq:3.5.40}{{3.5.40}{210}}
\newlabel{coro3.5.32}{{3.5.32}{210}}
\newlabel{eq:3.5.41}{{3.5.41}{210}}
\@writefile{toc}{\contentsline {section}{\numberline {3.6}El movimiento Browniano Fraccionario}{210}}
\newlabel{section3.6}{{3.6}{210}}
\@writefile{toc}{\contentsline {subsection}{\numberline {3.6.1}Caracterizaciones del Movimiento Browniano Fraccionario}{210}}
\newlabel{subsection3.6.1}{{3.6.1}{210}}
\newlabel{eq:3.6.1}{{3.6.1}{210}}
\newlabel{obs3.6.1}{{3.6.1}{210}}
\newlabel{lema3.6.2}{{3.6.2}{210}}
\newlabel{eq:3.6.2}{{3.6.2}{210}}
\newlabel{eq:3.6.3}{{3.6.3}{211}}
\newlabel{lema3.6.3}{{3.6.3}{211}}
\newlabel{teo3.6.4}{{3.6.4}{211}}
\newlabel{eq:3.6.4}{{3.6.4}{212}}
\newlabel{teo3.6.5}{{3.6.5}{212}}
\newlabel{eq:3.6.5}{{3.6.5}{212}}
\newlabel{eq:3.6.6}{{3.6.6}{212}}
\newlabel{eq:3.6.7}{{3.6.7}{212}}
\newlabel{eq:3.6.8}{{3.6.8}{212}}
\newlabel{eq:3.6.9}{{3.6.9}{212}}
\newlabel{eq:3.6.10}{{3.6.10}{213}}
\newlabel{eq:3.6.11}{{3.6.11}{213}}
\newlabel{eq:3.6.12}{{3.6.12}{213}}
\newlabel{eq:3.6.13}{{3.6.13}{214}}
\newlabel{lema3.6.6}{{3.6.6}{214}}
\newlabel{eq:3.6.14}{{3.6.14}{214}}
\newlabel{eq:3.6.15}{{3.6.15}{215}}
\newlabel{obs3.6.7}{{3.6.7}{216}}
\newlabel{prob3.6.8}{{3.6.8}{216}}
\newlabel{eq:3.6.16}{{3.6.16}{216}}
\newlabel{eq:3.6.17}{{3.6.17}{216}}
\newlabel{prob3.6.9}{{3.6.9}{216}}
\newlabel{eq:3.6.18}{{3.6.18}{216}}
\newlabel{def3.6.10}{{3.6.10}{216}}
\newlabel{prob3.6.11}{{3.6.11}{216}}
\newlabel{teo3.6.12}{{3.6.12}{217}}
\newlabel{prob3.6.13}{{3.6.13}{218}}
\newlabel{prop3.6.14}{{3.6.14}{218}}
\newlabel{eq:3.6.19}{{3.6.19}{218}}
\newlabel{eq:3.6.20}{{3.6.20}{218}}
\newlabel{porb3.6.15}{{3.6.15}{219}}
\newlabel{eq:3.6.21}{{3.6.21}{219}}
\newlabel{eq:3.6.22}{{3.6.22}{219}}
\newlabel{obs3.6.16}{{3.6.16}{219}}
\newlabel{prob3.6.17}{{3.6.17}{219}}
\@writefile{toc}{\contentsline {subsection}{\numberline {3.6.2}La integral de Wiener fraccionaria}{220}}
\newlabel{subsection3.6.2}{{3.6.2}{220}}
\newlabel{eq:3.6.23}{{3.6.23}{220}}
\newlabel{obs3.6.18}{{3.6.18}{220}}
\newlabel{eq:3.6.24}{{3.6.24}{220}}
\newlabel{lema3.6.19}{{3.6.19}{220}}
\newlabel{eq:3.6.25}{{3.6.25}{220}}
\newlabel{obs3.6.20}{{3.6.20}{221}}
\newlabel{prob3.6.21}{{3.6.21}{222}}
\newlabel{lema3.6.22}{{3.6.22}{222}}
\newlabel{eq:3.6.26}{{3.6.26}{222}}
\newlabel{eq:3.6.27}{{3.6.27}{222}}
\newlabel{eq:3.6.28}{{3.6.28}{222}}
\newlabel{eq:3.6.29}{{3.6.29}{222}}
\newlabel{eq:3.6.30}{{3.6.30}{222}}
\newlabel{eq:3.6.31}{{3.6.31}{223}}
\newlabel{eq:3.6.32}{{3.6.32}{223}}
\newlabel{prop3.6.23}{{3.6.23}{223}}
\newlabel{eq:3.6.33}{{3.6.33}{224}}
\newlabel{eq:3.6.34}{{3.6.34}{224}}
\newlabel{lema3.6.24}{{3.6.24}{224}}
\newlabel{eq:3.6.35}{{3.6.35}{224}}
\newlabel{eq:3.6.36}{{3.6.36}{224}}
\newlabel{obs3.6.25}{{3.6.25}{226}}
\newlabel{prob3.6.26}{{3.6.26}{226}}
\newlabel{teo3.6.26}{{3.6.27}{226}}
\newlabel{eq:3.6.37}{{3.6.37}{226}}
\newlabel{def3.6.28}{{3.6.28}{226}}
\newlabel{teo3.6.29}{{3.6.29}{226}}
\newlabel{eq:3.6.38}{{3.6.38}{226}}
\newlabel{eq:3.6.39}{{3.6.39}{226}}
\newlabel{eq:3.6.40}{{3.6.40}{227}}
\newlabel{obs3.6.30}{{3.6.30}{227}}
\@setckpt{capitulo3(a)}{
\setcounter{page}{228}
\setcounter{equation}{40}
\setcounter{enumi}{5}
\setcounter{enumii}{0}
\setcounter{enumiii}{0}
\setcounter{enumiv}{0}
\setcounter{footnote}{0}
\setcounter{mpfootnote}{0}
\setcounter{part}{0}
\setcounter{chapter}{3}
\setcounter{section}{6}
\setcounter{subsection}{2}
\setcounter{subsubsection}{0}
\setcounter{paragraph}{0}
\setcounter{subparagraph}{0}
\setcounter{figure}{0}
\setcounter{table}{0}
\setcounter{parentequation}{0}
\setcounter{lips@count}{0}
\setcounter{teo}{30}
\setcounter{ejemplos}{0}
}
