\relax 
\@writefile{toc}{\contentsline {chapter}{\numberline {6}Ecuaciones diferenciales estoc\IeC {\'a}sticas}{335}}
\@writefile{lof}{\addvspace {10\p@ }}
\@writefile{lot}{\addvspace {10\p@ }}
\newlabel{chapter6}{{6}{335}}
\@writefile{toc}{\contentsline {section}{\numberline {6.1}Soluciones d\IeC {\'e}biles}{336}}
\newlabel{section6.1.1}{{6.1}{336}}
\@writefile{toc}{\contentsline {subsection}{\numberline {6.1.1}Definici\IeC {\'o}n de las soluciones y la unicidad en trayectoria y en ley}{336}}
\newlabel{eq:6.1.1}{{6.1.1}{336}}
\newlabel{def6.1.1}{{6.1.1}{336}}
\newlabel{eq:6.1.2}{{6.1.2}{337}}
\newlabel{eq:6.1.3}{{6.1.3}{337}}
\newlabel{obs6.1.2}{{6.1.2}{337}}
\newlabel{def6.1.3}{{6.1.3}{337}}
\newlabel{obs6.1.4}{{6.1.4}{337}}
\newlabel{obs6.1.5}{{6.1.5}{337}}
\newlabel{def6.1.6}{{6.1.6}{338}}
\newlabel{def6.1.7}{{6.1.7}{338}}
\newlabel{obs6.1.8}{{6.1.8}{338}}
\newlabel{ejems6.1.9}{{6.1.9}{338}}
\newlabel{eq:6.1.4}{{6.1.4}{338}}
\newlabel{eq:6.1.5}{{6.1.5}{339}}
\newlabel{obs6.1.10}{{6.1.10}{339}}
\newlabel{eq:6.1.6}{{6.1.6}{339}}
\newlabel{obs6.1.11}{{6.1.11}{339}}
\newlabel{ejems6.1.12}{{6.1.12}{339}}
\newlabel{eq:6.1.7}{{6.1.7}{339}}
\newlabel{ejems6.1.13}{{6.1.13}{340}}
\newlabel{eq:6.1.8}{{6.1.8}{340}}
\@writefile{toc}{\contentsline {subsection}{\numberline {6.1.2}Soluciones d\IeC {\'e}bilses y el problema de la martingala}{340}}
\newlabel{section6.1.2}{{6.1.2}{340}}
\newlabel{teo6.1.14}{{6.1.14}{340}}
\newlabel{eq:6.1.9}{{6.1.9}{341}}
\newlabel{eq:6.1.10}{{6.1.10}{341}}
\newlabel{teo6.1.15}{{6.1.15}{343}}
\newlabel{eq:6.1.11}{{6.1.11}{343}}
\newlabel{teo6.1.16}{{6.1.16}{343}}
\newlabel{def6.1.17}{{6.1.17}{343}}
\newlabel{eq:6.1.12}{{6.1.12}{344}}
\newlabel{eq:6.1.13}{{6.1.13}{344}}
\newlabel{teo6.1.18}{{6.1.18}{344}}
\newlabel{teo6.1.19}{{6.1.19}{344}}
\newlabel{eq:6.1.14}{{6.1.14}{345}}
\newlabel{eq:6.1.15}{{6.1.15}{345}}
\newlabel{eq:6.1.16}{{6.1.16}{346}}
\newlabel{eq:6.1.17}{{6.1.17}{346}}
\newlabel{eq:6.1.18}{{6.1.18}{346}}
\newlabel{eq:6.1.19}{{6.1.19}{346}}
\newlabel{eq:6.1.20}{{6.1.20}{346}}
\newlabel{eq:6.1.21}{{6.1.21}{347}}
\newlabel{obs6.1.20}{{6.1.20}{347}}
\newlabel{obs6.1.21}{{6.1.21}{347}}
\@writefile{toc}{\contentsline {subsection}{\numberline {6.1.3}El teorema de Yamada-Watanabe}{347}}
\newlabel{proble6.1.22}{{6.1.22}{347}}
\newlabel{proble6.1.23}{{6.1.23}{347}}
\newlabel{proble6.1.24}{{6.1.24}{348}}
\newlabel{eq:6.1.22}{{6.1.22}{348}}
\newlabel{teo6.1.25}{{6.1.25}{348}}
\newlabel{eq:6.1.23}{{6.1.23}{348}}
\newlabel{eq:6.1.24}{{6.1.24}{349}}
\newlabel{eq:6.1.25}{{6.1.25}{349}}
\newlabel{eq:6.1.26}{{6.1.26}{349}}
\newlabel{eq:6.1.27}{{6.1.27}{349}}
\newlabel{eq:6.1.28}{{a}{350}}
\newlabel{eq:6.1.29}{{6.1.29}{351}}
\newlabel{eq:6.1.30}{{6.1.30}{352}}
\newlabel{eq:6.1.31}{{6.1.31}{352}}
\newlabel{eq:6.1.32}{{6.1.32}{353}}
\newlabel{proble6.1.26}{{6.1.26}{353}}
\newlabel{eq:6.1.33}{{6.1.33}{354}}
\newlabel{obs6.1.27}{{6.1.27}{354}}
\newlabel{teo6.1.28}{{6.1.28}{354}}
\newlabel{obs6.1.29}{{6.1.29}{354}}
\@writefile{toc}{\contentsline {section}{\numberline {6.2}Teoremas de existencia y unicidad}{354}}
\newlabel{section6.2}{{6.2}{354}}
\@writefile{toc}{\contentsline {subsection}{\numberline {6.2.1}Teoremas de existencia}{354}}
\newlabel{section6.2.1}{{6.2.1}{354}}
\newlabel{teo6.2.1}{{6.2.1}{354}}
\newlabel{eq:6.2.1}{{6.2.1}{354}}
\newlabel{eq:6.2.2}{{6.2.2}{355}}
\newlabel{eq:6.2.3}{{6.2.3}{355}}
\newlabel{eq:6.2.4}{{6.2.4}{355}}
\newlabel{eq:6.2.5}{{6.2.5}{355}}
\newlabel{eq:6.2.6}{{6.2.6}{355}}
\newlabel{eq:6.2.7}{{6.2.7}{355}}
\newlabel{eq:6.2.8}{{6.2.8}{355}}
\newlabel{eq:6.2.9}{{6.2.9}{356}}
\newlabel{eq:6.2.10}{{6.2.10}{356}}
\newlabel{eq:6.2.11}{{6.2.11}{356}}
\newlabel{eq:6.2.12}{{6.2.12}{356}}
\newlabel{eq:6.2.13}{{6.2.13}{356}}
\newlabel{eq:6.2.14}{{6.2.14}{357}}
\newlabel{eq:6.2.15}{{6.2.15}{357}}
\newlabel{obs6.2.2}{{6.2.2}{358}}
\newlabel{eq:6.2.16}{{6.2.16}{358}}
\newlabel{eq:6.2.17}{{6.2.17}{358}}
\newlabel{teo6.2.3}{{6.2.3}{358}}
\newlabel{eq:6.2.18}{{6.2.18}{358}}
\newlabel{eq:6.2.19}{{6.2.19}{359}}
\newlabel{teo6.2.4}{{6.2.4}{359}}
\newlabel{eq:6.2.20}{{6.2.20}{359}}
\newlabel{eq:6.2.21}{{6.2.21}{359}}
\newlabel{eq:6.2.22}{{6.2.22}{360}}
\newlabel{obs6.2.5}{{6.2.5}{361}}
\newlabel{proble6.2.6}{{6.2.6}{361}}
\newlabel{obs6.2.7}{{6.2.7}{361}}
\@writefile{toc}{\contentsline {subsection}{\numberline {6.2.2}Teoremas de unicidad en trayectoria}{361}}
\newlabel{teo6.2.8}{{6.2.8}{362}}
\newlabel{eq:6.2.23}{{6.2.23}{362}}
\newlabel{teo6.2.9}{{6.2.9}{362}}
\newlabel{eq:6.2.24}{{6.2.24}{362}}
\newlabel{teo6.2.10}{{6.2.10}{364}}
\newlabel{eq:6.2.25}{{6.2.25}{364}}
\newlabel{proble6.2.11}{{6.2.11}{365}}
\newlabel{eq:6.2.26}{{6.2.26}{365}}
\newlabel{teo6.2.12}{{6.2.12}{366}}
\newlabel{eq:6.2.27}{{6.2.27}{366}}
\newlabel{eq:6.2.28}{{6.2.28}{366}}
\newlabel{teo6.2.13}{{6.2.13}{366}}
\newlabel{eq:6.2.29}{{6.2.29}{367}}
\newlabel{eq:6.2.30}{{6.2.30}{367}}
\newlabel{eq:6.2.31}{{6.2.31}{367}}
\newlabel{proble6.2.14}{{6.2.14}{368}}
\newlabel{eq:6.2.32}{{6.2.32}{368}}
\newlabel{eq:6.2.33}{{6.2.33}{368}}
\newlabel{obs6.2.15}{{6.2.15}{368}}
\newlabel{obs6.2.16}{{6.2.16}{368}}
\newlabel{obs6.2.17}{{6.2.17}{368}}
\newlabel{teo6.2.18}{{6.2.18}{368}}
\newlabel{proble6.2.19}{{6.2.19}{369}}
\@writefile{toc}{\contentsline {subsection}{\numberline {6.2.3}Existencia y unicidad en ley usando el teorema de Girsanov}{370}}
\newlabel{teo6.2.20}{{6.2.20}{370}}
\newlabel{eq:6.2.34}{{6.2.34}{370}}
\newlabel{teo6.2.21}{{6.2.21}{370}}
\newlabel{eq:6.2.35}{{6.2.35}{370}}
\newlabel{eq:6.2.36}{{6.2.36}{370}}
\newlabel{eq:6.2.37}{{6.2.37}{370}}
\newlabel{proble6.2.22}{{6.2.22}{372}}
\newlabel{obs6.2.23}{{6.2.23}{372}}
\newlabel{obs6.2.24}{{6.2.24}{372}}
\newlabel{eq:6.2.38}{{6.2.38}{372}}
\newlabel{eq:6.2.39}{{6.2.39}{372}}
\newlabel{ejems6.2.25}{{6.2.25}{372}}
\newlabel{eq:6.2.40}{{6.2.40}{373}}
\newlabel{eq:6.2.41}{{6.2.41}{373}}
\newlabel{eq:6.2.42}{{6.2.42}{373}}
\@writefile{toc}{\contentsline {section}{\numberline {6.3}Ecuaciones de It\^{o} con coeficientes de Lipschitz}{374}}
\newlabel{section6.3}{{6.3}{374}}
\@writefile{toc}{\contentsline {subsection}{\numberline {6.3.1}Existencia, unicidad y la propiedad de Markov de las soluciones}{374}}
\newlabel{def6.3.1}{{6.3.1}{375}}
\newlabel{eq:6.3.1}{{6.3.1}{375}}
\newlabel{eq:6.3.2}{{6.3.2}{375}}
\newlabel{eq:6.3.3}{{6.3.3}{375}}
\newlabel{teo6.3.2}{{6.3.2}{375}}
\newlabel{teo6.3.3}{{6.3.3}{375}}
\newlabel{eq:6.3.4}{{6.3.4}{375}}
\newlabel{eq:6.3.5}{{6.3.5}{375}}
\newlabel{eq:6.3.6}{{6.3.6}{376}}
\newlabel{eq:6.3.7}{{6.3.7}{376}}
\newlabel{eq:6.3.8}{{6.3.8}{377}}
\newlabel{eq:6.3.9}{{6.3.9}{377}}
\newlabel{eq:6.3.10}{{6.3.10}{377}}
\newlabel{eq:6.3.11}{{6.3.11}{378}}
\newlabel{eq:6.3.12}{{6.3.12}{378}}
\newlabel{eq:6.3.13}{{6.3.13}{379}}
\newlabel{eq:6.3.14}{{6.3.14}{379}}
\newlabel{teo6.3.4}{{6.3.4}{381}}
\newlabel{eq:6.3.15}{{6.3.15}{381}}
\newlabel{eq:6.3.16}{{6.3.16}{381}}
\newlabel{eq:6.3.17}{{6.3.17}{382}}
\newlabel{obs6.3.5}{{6.3.5}{382}}
\newlabel{obs6.3.6}{{6.3.6}{382}}
\newlabel{eq:6.3.18}{{6.3.18}{382}}
\newlabel{teo6.3.7}{{6.3.7}{383}}
\newlabel{obs6.3.8}{{6.3.8}{385}}
\newlabel{teo6.3.9}{{6.3.9}{385}}
\newlabel{teo6.3.10}{{6.3.10}{385}}
\newlabel{eq:6.3.19}{{6.3.19}{387}}
\newlabel{teo6.3.11}{{6.3.11}{387}}
\newlabel{eq:6.3.20}{{6.3.20}{387}}
\newlabel{eq:6.3.21}{{6.3.21}{387}}
\newlabel{eq:6.3.22}{{6.3.22}{388}}
\newlabel{eq:6.3.23}{{6.3.23}{388}}
\newlabel{teo6.3.12}{{6.3.12}{388}}
\newlabel{eq:6.3.24}{{6.3.24}{388}}
\newlabel{teo6.3.13}{{6.3.13}{390}}
\newlabel{teo6.3.14}{{6.3.14}{390}}
\newlabel{eq:6.3.25}{{6.3.25}{390}}
\newlabel{eq:6.3.26}{{6.3.26}{390}}
\newlabel{teo6.3.15}{{6.3.15}{391}}
\newlabel{eq:6.3.27}{{6.3.27}{391}}
\newlabel{eq:6.3.28}{{6.3.28}{392}}
\newlabel{proble6.3.17}{{6.3.17}{393}}
\newlabel{eq:6.3.29}{{6.3.29}{393}}
\newlabel{teo6.3.18}{{6.3.18}{393}}
\newlabel{teo6.3.19}{{6.3.19}{394}}
\newlabel{eq:6.3.30}{{6.3.30}{394}}
\newlabel{eq:6.3.31}{{6.3.31}{394}}
\newlabel{eq:6.3.32}{{6.3.32}{394}}
\newlabel{eq:6.3.33}{{6.3.33}{394}}
\@writefile{toc}{\contentsline {subsection}{\numberline {6.3.2}Dependencia continua con respecto a las condiciones iniciales y a los coeficientes}{395}}
\newlabel{section:6.3.2}{{6.3.2}{395}}
\newlabel{teo6.3.20}{{6.3.20}{395}}
\newlabel{eq:6.3.34}{{6.3.34}{395}}
\newlabel{eq:6.3.35}{{6.3.35}{395}}
\newlabel{eq:6.3.36}{{6.3.36}{395}}
\newlabel{eq:6.3.37}{{6.3.37}{395}}
\newlabel{eq:6.3.38}{{6.3.38}{395}}
\newlabel{eq:6.3.39}{{6.3.39}{396}}
\newlabel{teo6.3.21}{{6.3.21}{397}}
\newlabel{eq:6.3.40}{{6.3.40}{397}}
\newlabel{eq:6.3.41}{{6.3.41}{397}}
\newlabel{eq:6.3.42}{{6.3.42}{397}}
\newlabel{eq:6.3.43}{{6.3.43}{397}}
\newlabel{eq:6.3.44}{{6.3.44}{397}}
\newlabel{obs6.3.22}{{6.3.22}{397}}
\newlabel{eq:6.3.45}{{6.3.45}{397}}
\newlabel{eq:6.3.46}{{6.3.46}{397}}
\newlabel{eq:6.3.47}{{6.3.47}{397}}
\newlabel{obs6.3.23}{{6.3.23}{397}}
\newlabel{eq:6.3.48}{{6.3.48}{397}}
\newlabel{eq:6.3.49}{{6.3.49}{398}}
\newlabel{eq:6.3.50}{{6.3.50}{398}}
\newlabel{eq:6.3.51}{{6.3.51}{398}}
\newlabel{eq:6.3.52}{{6.3.52}{399}}
\newlabel{eq:6.3.53}{{6.3.53}{399}}
\newlabel{proble6.3.24}{{6.3.24}{399}}
\newlabel{teo6.3.25}{{6.3.25}{399}}
\newlabel{eq:6.3.54}{{6.3.54}{399}}
\newlabel{eq:6.3.55}{{6.3.55}{400}}
\newlabel{eq:6.3.56}{{6.3.56}{400}}
\@writefile{toc}{\contentsline {subsection}{\numberline {6.3.3}Diferenciabilidad con respecto a las condiciones iniciales}{401}}
\newlabel{section:6.3.3}{{6.3.3}{401}}
\newlabel{eq:6.3.57}{{6.3.57}{401}}
\newlabel{def6.3.26}{{6.3.26}{402}}
\newlabel{teo6.3.27}{{6.3.27}{402}}
\newlabel{eq:6.3.58}{{6.3.58}{402}}
\newlabel{eq:6.3.59}{{6.3.59}{403}}
\newlabel{eq:6.3.60}{{6.3.60}{403}}
\newlabel{eq:6.3.61}{{6.3.61}{403}}
\newlabel{eq:6.3.62}{{6.3.62}{403}}
\newlabel{eq:6.3.63}{{6.3.63}{403}}
\newlabel{eq:6.3.64}{{6.3.64}{403}}
\newlabel{obs6.3.28}{{6.3.28}{404}}
\newlabel{teo6.3.29}{{6.3.29}{404}}
\newlabel{obs6.3.30}{{6.3.30}{404}}
\newlabel{teo6.3.31}{{6.3.31}{404}}
\newlabel{eq:6.3.65}{{6.3.65}{404}}
\newlabel{eq:6.3.66}{{6.3.66}{404}}
\newlabel{eq:6.3.67}{{6.3.67}{405}}
\newlabel{eq:6.3.68}{{6.3.68}{405}}
\newlabel{eq:6.3.69}{{6.3.69}{405}}
\newlabel{eq:6.3.70}{{6.3.70}{405}}
\newlabel{eq:6.3.71}{{6.3.71}{406}}
\newlabel{teo6.3.32}{{6.3.32}{406}}
\newlabel{eq:6.3.72}{{6.3.72}{406}}
\newlabel{eq:6.3.73}{{6.3.73}{406}}
\newlabel{eq:6.3.74}{{6.3.74}{407}}
\newlabel{eq:6.3.75}{{6.3.75}{407}}
\newlabel{eq:6.3.76}{{6.3.76}{407}}
\newlabel{eq:6.3.77}{{6.3.77}{407}}
\newlabel{eq:6.3.78}{{6.3.78}{407}}
\newlabel{eq:6.3.79}{{6.3.79}{408}}
\newlabel{eq:6.3.80}{{6.3.80}{408}}
\newlabel{eq:6.3.81}{{6.3.81}{408}}
\newlabel{eq:6.3.82}{{6.3.82}{408}}
\newlabel{teo6.3.33}{{6.3.33}{409}}
\newlabel{eq:6.3.83}{{6.3.83}{409}}
\newlabel{eq:6.3.84}{{6.3.84}{409}}
\newlabel{eq:6.3.85}{{6.3.85}{409}}
\newlabel{obs6.3.34}{{6.3.34}{410}}
\newlabel{proble6.3.35}{{6.3.35}{410}}
\newlabel{eq:6.3.86}{{6.3.86}{410}}
\newlabel{eq:6.3.87}{{6.3.87}{410}}
\newlabel{eq:6.3.88}{{6.3.88}{411}}
\newlabel{eq:6.3.89}{{6.3.89}{411}}
\newlabel{def6.3.36}{{6.3.36}{411}}
\newlabel{eq:6.3.90}{{6.3.90}{411}}
\newlabel{eq:6.3.91}{{6.3.91}{411}}
\newlabel{eq:6.3.92}{{6.3.92}{411}}
\newlabel{obs6.3.37}{{6.3.37}{412}}
\newlabel{eq:6.3.93}{{6.3.93}{412}}
\newlabel{eq:6.3.94}{{6.3.94}{412}}
\newlabel{eq:6.3.95}{{6.3.95}{412}}
\newlabel{probe6.3.38}{{6.3.38}{412}}
\newlabel{eq:6.3.96}{{6.3.96}{412}}
\newlabel{proble6.3.39}{{6.3.39}{412}}
\newlabel{eq:6.3.97}{{6.3.97}{412}}
\newlabel{eq:6.3.98}{{6.3.98}{412}}
\@writefile{toc}{\contentsline {section}{\numberline {6.4}Ecuaciones de It\^{o} afines}{412}}
\newlabel{section6.4}{{6.4}{412}}
\newlabel{eq:6.4.1}{{6.4.1}{412}}
\newlabel{teo6.4.1}{{6.4.1}{413}}
\newlabel{obs6.4.2}{{6.4.2}{413}}
\newlabel{def6.4.3}{{6.4.3}{413}}
\newlabel{eq:6.4.2}{{6.4.2}{413}}
\newlabel{eq:6.4.3}{{6.4.3}{413}}
\newlabel{teo6.4.4}{{6.4.4}{413}}
\newlabel{eq:6.4.4}{{6.4.4}{413}}
\newlabel{teo6.4.5}{{6.4.5}{414}}
\newlabel{eq:6.4.5}{{6.4.5}{414}}
\newlabel{eq:6.4.6}{{6.4.6}{414}}
\newlabel{eq:6.4.7}{{6.4.7}{414}}
\newlabel{eq:6.4.8}{{6.4.8}{414}}
\newlabel{teo6.4.6}{{6.4.6}{415}}
\newlabel{eq:6.4.9}{{6.4.9}{415}}
\newlabel{obs6.4.7}{{6.4.7}{415}}
\newlabel{eq:6.4.10}{{6.4.10}{415}}
\newlabel{eq:6.4.11}{{6.4.11}{415}}
\newlabel{teo6.4.8}{{6.4.8}{415}}
\newlabel{eq:6.4.12}{{6.4.12}{415}}
\newlabel{eq:6.4.13}{{6.4.13}{415}}
\newlabel{eq:6.4.14}{{6.4.14}{415}}
\newlabel{eq:6.4.15}{{6.4.15}{415}}
\newlabel{obs6.4.9}{{6.4.9}{416}}
\newlabel{ejems6.4.10}{{6.4.10}{416}}
\newlabel{eq:6.4.16}{{6.4.16}{416}}
\newlabel{eq:6.4.17}{{6.4.17}{416}}
\newlabel{eq:6.4.18}{{6.4.18}{416}}
\newlabel{eq:6.4.19}{{6.4.19}{416}}
\newlabel{eq:6.4.20}{{6.4.20}{416}}
\newlabel{obs6.4.11}{{6.4.11}{416}}
\newlabel{eq:6.4.21}{{6.4.21}{416}}
\newlabel{obs6.4.12}{{6.4.12}{416}}
\newlabel{eq:6.4.22}{{6.4.22}{416}}
\newlabel{proble6.4.13}{{6.4.13}{417}}
\newlabel{ejems6.4.14}{{6.4.14}{417}}
\newlabel{eq:6.4.23}{{6.4.23}{417}}
\newlabel{eq:6.4.24}{{6.4.24}{417}}
\newlabel{proble6.4.15}{{6.4.15}{417}}
\newlabel{eq:6.4.25}{{6.4.25}{417}}
\newlabel{teo6.4.16}{{6.4.16}{417}}
\newlabel{eq:6.4.26}{{6.4.26}{417}}
\newlabel{eq:6.4.27}{{6.4.27}{417}}
\newlabel{eq:6.4.28}{{6.4.28}{417}}
\newlabel{teo6.4.17}{{6.4.17}{418}}
\newlabel{eq:6.4.29}{{6.4.29}{418}}
\newlabel{eq:6.4.30}{{6.4.30}{419}}
\newlabel{teo6.4.18}{{6.4.18}{419}}
\newlabel{proble6.4.19}{{6.4.19}{420}}
\newlabel{teo6.4.20}{{6.4.20}{420}}
\newlabel{eq:6.4.31}{{6.4.31}{420}}
\newlabel{eq:6.4.32}{{6.4.32}{420}}
\newlabel{eq:6.4.33}{{6.4.33}{420}}
\newlabel{eq:6.4.34}{{6.4.34}{420}}
\newlabel{obs6.4.21}{{6.4.21}{420}}
\newlabel{eq:6.4.35}{{6.4.35}{420}}
\newlabel{eq:6.4.36}{{6.4.36}{420}}
\newlabel{proble6.4.22}{{6.4.22}{420}}
\newlabel{eq:6.4.37}{{6.4.37}{420}}
\newlabel{teo6.4.23}{{6.4.23}{421}}
\newlabel{eq:6.4.38}{{6.4.38}{421}}
\newlabel{eq:6.4.39}{{6.4.39}{421}}
\newlabel{teo6.4.24}{{6.4.24}{421}}
\newlabel{eq:6.4.40}{{6.4.40}{421}}
\newlabel{eq:6.4.41}{{6.4.41}{421}}
\newlabel{obs6.4.25}{{6.4.25}{422}}
\newlabel{obs6.4.26}{{6.4.26}{422}}
\newlabel{eq:6.4.42}{{6.4.42}{422}}
\newlabel{obs6.4.27}{{6.4.27}{422}}
\newlabel{obs6.4.28}{{6.4.28}{422}}
\@setckpt{chapter6}{
\setcounter{page}{423}
\setcounter{equation}{42}
\setcounter{enumi}{2}
\setcounter{enumii}{0}
\setcounter{enumiii}{0}
\setcounter{enumiv}{0}
\setcounter{footnote}{0}
\setcounter{mpfootnote}{0}
\setcounter{part}{0}
\setcounter{chapter}{6}
\setcounter{section}{4}
\setcounter{subsection}{0}
\setcounter{subsubsection}{0}
\setcounter{paragraph}{0}
\setcounter{subparagraph}{0}
\setcounter{figure}{0}
\setcounter{table}{0}
\setcounter{parentequation}{0}
\setcounter{lips@count}{0}
\setcounter{teo}{28}
\setcounter{ejemplos}{3}
}
