\relax 
\@writefile{toc}{\contentsline {chapter}{\numberline {2}Martingalas}{37}}
\@writefile{lof}{\addvspace {10\p@ }}
\@writefile{lot}{\addvspace {10\p@ }}
\newlabel{cap2}{{2}{37}}
\@writefile{toc}{\contentsline {section}{\numberline {2.1}Propiedades generales}{37}}
\newlabel{sec2.1}{{2.1}{37}}
\newlabel{def2.1.1}{{2.1.1}{38}}
\newlabel{2.1.1}{{2.1.1}{38}}
\newlabel{2.1.2}{{2.1.2}{38}}
\newlabel{2.1.3}{{2.1.3}{38}}
\newlabel{obs2.1.2}{{2.1.2}{38}}
\newlabel{2.1.4}{{2.1.4}{38}}
\newlabel{2.1.5}{{2.1.5}{38}}
\newlabel{2.1.6}{{2.1.6}{38}}
\newlabel{obs2.1.3}{{2.1.3}{38}}
\newlabel{prob2.1.4}{{2.1.4}{38}}
\newlabel{2.1.7}{{2.1.7}{38}}
\newlabel{2.1.8}{{2.1.8}{39}}
\newlabel{2.1.9}{{2.1.9}{39}}
\newlabel{prob2.1.5}{{2.1.5}{39}}
\newlabel{2.1.10}{{2.1.10}{39}}
\newlabel{2.1.11}{{2.1.11}{39}}
\newlabel{2.1.12}{{2.1.12}{39}}
\newlabel{prob2.1.6}{{2.1.6}{39}}
\newlabel{2.1.13}{{2.1.13}{39}}
\newlabel{obs2.1.7}{{2.1.7}{39}}
\newlabel{def2.1.8}{{2.1.8}{40}}
\newlabel{2.1.14}{{2.1.14}{40}}
\newlabel{obs2.1.9}{{2.1.9}{40}}
\newlabel{2.1.15}{{2.1.15}{40}}
\newlabel{prop2.1.10}{{2.1.10}{40}}
\newlabel{2.1.16}{{2.1.16}{40}}
\newlabel{2.1.17}{{2.1.17}{40}}
\newlabel{prop2.1.11}{{2.1.11}{40}}
\newlabel{prop2.1.12}{{2.1.12}{42}}
\newlabel{2.1.18}{{2.1.18}{42}}
\newlabel{coro2.1.13}{{2.1.13}{42}}
\newlabel{prob2.1.14}{{2.1.14}{42}}
\newlabel{2.1.19}{{2.1.19}{42}}
\newlabel{prob2.1.15}{{2.1.15}{42}}
\@writefile{toc}{\contentsline {section}{\numberline {2.2}Martingalas con tiempo discreto}{43}}
\newlabel{sec2.2}{{2.2}{43}}
\@writefile{toc}{\contentsline {subsection}{\numberline {2.2.1}El teorema de paro de Doob}{43}}
\newlabel{subsec2.2.1}{{2.2.1}{43}}
\newlabel{teo2.2.1}{{2.2.1}{43}}
\newlabel{2.2.1}{{2.2.1}{43}}
\newlabel{2.2.2}{{2.2.2}{43}}
\newlabel{2.2.3}{{2.2.3}{43}}
\newlabel{2.2.4}{{2.2.4}{43}}
\newlabel{2.2.5}{{2.2.5}{43}}
\newlabel{2.2.6}{{2.2.6}{43}}
\newlabel{obs2.2.2}{{2.2.2}{43}}
\newlabel{obs2.2.3}{{2.2.3}{44}}
\newlabel{2.2.7}{{2.2.7}{44}}
\newlabel{2.2.8}{{2.2.8}{44}}
\newlabel{def2.2.4}{{2.2.4}{45}}
\newlabel{obs2.2.5}{{2.2.5}{45}}
\newlabel{teo2.2.6}{{2.2.6}{45}}
\newlabel{2.2.9}{{2.2.9}{45}}
\newlabel{2.2.10}{{2.2.10}{46}}
\newlabel{2.2.11}{{2.2.11}{46}}
\newlabel{2.2.12}{{2.2.12}{46}}
\newlabel{2.2.13}{{2.2.13}{47}}
\newlabel{2.2.14}{{2.2.14}{47}}
\@writefile{toc}{\contentsline {subsection}{\numberline {2.2.2}Desigualdades maximales}{48}}
\newlabel{subsec2.2.2}{{2.2.2}{48}}
\newlabel{teo2.2.7}{{2.2.7}{48}}
\newlabel{2.2.15}{{2.2.15}{48}}
\newlabel{2.2.16}{{2.2.16}{48}}
\newlabel{2.2.17}{{2.2.17}{48}}
\newlabel{2.2.18}{{2.2.18}{49}}
\newlabel{2.2.19}{{2.2.19}{49}}
\newlabel{coro2.2.8}{{2.2.8}{49}}
\citation{31}
\newlabel{2.2.20}{{2.2.20}{50}}
\newlabel{2.2.21}{{2.2.21}{50}}
\newlabel{obs2.2.9}{{2.2.9}{50}}
\newlabel{prop2.2.10}{{2.2.10}{50}}
\newlabel{2.2.22}{{2.2.22}{50}}
\newlabel{lema2.2.11}{{2.2.11}{51}}
\newlabel{2.2.23}{{2.2.23}{51}}
\newlabel{2.2.24}{{2.2.24}{51}}
\@writefile{toc}{\contentsline {subsection}{\numberline {2.2.3}Teorema de convergencia}{52}}
\newlabel{subsec2.2.3}{{2.2.3}{52}}
\newlabel{prop2.2.12}{{2.2.12}{52}}
\newlabel{2.2.25}{{2.2.25}{52}}
\newlabel{teo2.2.13}{{2.2.13}{52}}
\newlabel{lema2.2.14}{{2.2.14}{53}}
\newlabel{lema2.2.15}{{2.2.15}{54}}
\newlabel{2.2.26}{{2.2.26}{54}}
\newlabel{2.2.27}{{2.2.27}{54}}
\newlabel{2.2.28}{{2.2.28}{57}}
\newlabel{def2.2.16}{{2.2.16}{57}}
\newlabel{2.2.29}{{2.2.29}{57}}
\newlabel{2.2.30}{{2.2.30}{57}}
\newlabel{def2.2.17}{{2.2.17}{57}}
\newlabel{prob2.2.18}{{2.2.18}{57}}
\newlabel{obs2.2.19}{{2.2.19}{57}}
\newlabel{2.2.31}{{2.2.31}{57}}
\newlabel{prop2.2.20}{{2.2.20}{58}}
\newlabel{2.2.32}{{2.2.32}{58}}
\newlabel{teo2.2.21}{{2.2.21}{59}}
\newlabel{2.2.33}{{2.2.33}{59}}
\newlabel{2.2.34}{{2.2.34}{59}}
\newlabel{2.2.35}{{2.2.35}{59}}
\newlabel{coro2.2.22}{{2.2.22}{59}}
\newlabel{teo2.2.23}{{2.2.23}{60}}
\newlabel{2.2.36}{{2.2.36}{60}}
\newlabel{2.2.37}{{2.2.37}{60}}
\newlabel{2.2.38}{{2.2.38}{61}}
\newlabel{prob2.2.24}{{2.2.24}{62}}
\newlabel{prop2.2.25}{{2.2.25}{62}}
\newlabel{2.2.39}{{2.2.39}{63}}
\newlabel{2.2.40}{{2.2.40}{63}}
\newlabel{2.2.41}{{2.2.41}{63}}
\newlabel{2.2.42}{{2.2.42}{63}}
\newlabel{2.2.43}{{2.2.43}{63}}
\newlabel{prob2.2.26}{{2.2.26}{63}}
\newlabel{prop2.2.27}{{2.2.27}{64}}
\newlabel{2.2.44}{{2.2.44}{64}}
\newlabel{prop2.2.28}{{2.2.28}{65}}
\newlabel{prob2.2.29}{{2.2.29}{66}}
\newlabel{prob2.2.30}{{2.2.30}{67}}
\newlabel{prob2.2.31}{{2.2.31}{67}}
\@writefile{toc}{\contentsline {section}{\numberline {2.3}Martingalas con tiempo continuo}{67}}
\newlabel{sec2.3}{{2.3}{67}}
\@writefile{toc}{\contentsline {subsection}{\numberline {2.3.1}Desigualdades maximales y el teorema de convergencia}{67}}
\newlabel{subsec2.3.1}{{2.3.1}{67}}
\newlabel{teo2.3.1}{{2.3.1}{67}}
\newlabel{2.3.1}{{2.3.1}{67}}
\newlabel{2.3.2}{{2.3.2}{67}}
\newlabel{2.3.3}{{2.3.3}{67}}
\newlabel{2.3.4}{{2.3.4}{68}}
\newlabel{obs2.3.2}{{2.3.2}{68}}
\newlabel{teo2.3.3}{{2.3.3}{68}}
\newlabel{2.3.5}{{2.3.5}{68}}
\newlabel{2.3.6}{{2.3.6}{68}}
\newlabel{coro2.3.4}{{2.3.4}{69}}
\@writefile{toc}{\contentsline {subsection}{\numberline {2.3.2}Martingalas uniformemente integrables y el teorema de paro de Doob}{69}}
\newlabel{subsec2.3.2}{{2.3.2}{69}}
\newlabel{def2.3.5}{{2.3.5}{69}}
\newlabel{prob2.3.6}{{2.3.6}{69}}
\newlabel{prob2.3.7}{{2.3.7}{69}}
\newlabel{prob2.3.8}{{2.3.8}{69}}
\newlabel{2.3.7}{{2.3.7}{69}}
\newlabel{prob2.3.9}{{2.3.9}{70}}
\newlabel{teo2.3.10}{{2.3.10}{70}}
\newlabel{obs2.3.11}{{2.3.11}{70}}
\newlabel{obs2.3.12}{{2.3.12}{71}}
\newlabel{2.3.8}{{2.3.8}{71}}
\newlabel{2.3.9}{{2.3.9}{71}}
\newlabel{teo2.3.13}{{2.3.13}{72}}
\newlabel{2.3.10}{{2.3.10}{72}}
\newlabel{2.3.11}{{2.3.11}{72}}
\newlabel{2.3.12}{{2.3.12}{72}}
\newlabel{2.3.13}{{2.3.13}{73}}
\newlabel{2.3.14}{{2.3.14}{73}}
\newlabel{prob2.3.14}{{2.3.14}{73}}
\newlabel{teo2.3.15}{{2.3.15}{73}}
\newlabel{2.3.15}{{2.3.15}{73}}
\newlabel{2.3.16}{{2.3.16}{74}}
\newlabel{2.3.17}{{2.3.17}{74}}
\newlabel{prop2.3.16}{{2.3.16}{74}}
\newlabel{prop2.3.17}{{2.3.17}{74}}
\newlabel{2.3.18}{{2.3.18}{74}}
\newlabel{2.3.19}{{2.3.19}{74}}
\newlabel{teo2.3.18}{{2.3.18}{75}}
\newlabel{2.3.20}{{2.3.20}{75}}
\newlabel{prop2.3.19}{{2.3.19}{75}}
\newlabel{prob2.3.20}{{2.3.20}{75}}
\@writefile{toc}{\contentsline {subsection}{\numberline {2.3.3}Existencia de la versi\IeC {\'o}n c\IeC {\`a}dl\IeC {\`a}g de una martingala}{76}}
\newlabel{subsec2.3.3}{{2.3.3}{76}}
\newlabel{prop2.3.21}{{2.3.21}{76}}
\newlabel{2.3.21}{{2.3.21}{76}}
\newlabel{2.3.22}{{2.3.22}{76}}
\newlabel{2.3.23}{{2.3.23}{76}}
\newlabel{2.3.24}{{2.3.24}{76}}
\newlabel{prop2.3.22}{{2.3.22}{78}}
\newlabel{teo2.3.23}{{2.3.23}{78}}
\newlabel{coro2.3.24}{{2.3.24}{78}}
\@writefile{toc}{\contentsline {section}{\numberline {2.4}Martingalas continuas}{78}}
\newlabel{sec2.4}{{2.4}{78}}
\@writefile{toc}{\contentsline {subsection}{\numberline {2.4.1}Martingalas locales y la descomposici\IeC {\'o}n de Doob-Meyer}{78}}
\newlabel{subsec2.4.1}{{2.4.1}{78}}
\newlabel{def2.4.1}{{2.4.1}{79}}
\newlabel{obs2.4.2}{{2.4.2}{79}}
\newlabel{lema2.4.3}{{2.4.3}{80}}
\newlabel{def2.4.4}{{2.4.4}{80}}
\newlabel{def2.4.5}{{2.4.5}{81}}
\newlabel{prob2.4.6}{{2.4.6}{81}}
\newlabel{prob2.4.7}{{2.4.7}{81}}
\newlabel{prop2.4.8}{{2.4.8}{81}}
\newlabel{2.4.1}{{2.4.1}{81}}
\newlabel{def2.4.9}{{2.4.9}{82}}
\newlabel{obs2.4.10}{{2.4.10}{83}}
\newlabel{lema2.4.11}{{2.4.11}{83}}
\newlabel{coro2.4.12}{{2.4.12}{83}}
\newlabel{obs2.4.13}{{2.4.13}{83}}
\newlabel{obs2.4.14}{{2.4.14}{83}}
\newlabel{def2.4.15}{{2.4.15}{83}}
\newlabel{obs2.4.16}{{2.4.16}{84}}
\newlabel{lema2.4.17}{{2.4.17}{84}}
\newlabel{2.4.2}{{2.4.2}{84}}
\newlabel{prop2.4.18}{{2.4.18}{84}}
\newlabel{2.4.3}{{2.4.3}{85}}
\newlabel{def2.4.19}{{2.4.19}{85}}
\newlabel{teo2.4.20}{{2.4.20}{86}}
\newlabel{def2.4.21}{{2.4.21}{86}}
\newlabel{2.4.4}{{2.4.4}{86}}
\newlabel{obs2.4.22}{{2.4.22}{90}}
\newlabel{coro2.4.23}{{2.4.23}{90}}
\newlabel{2.4.5}{{2.4.5}{90}}
\newlabel{2.4.6}{{2.4.6}{90}}
\newlabel{2.4.7}{{2.4.7}{90}}
\newlabel{2.4.8}{{2.4.8}{90}}
\newlabel{2.4.24}{{2.4.24}{90}}
\newlabel{coro2.4.25}{{2.4.25}{90}}
\newlabel{prop2.4.26}{{2.4.26}{91}}
\newlabel{2.4.9}{{2.4.9}{91}}
\newlabel{2.4.10}{{2.4.10}{91}}
\newlabel{coro2.4.27}{{2.4.27}{91}}
\newlabel{2.4.11}{{2.4.11}{91}}
\newlabel{teo2.4.28}{{2.4.28}{91}}
\newlabel{2.4.12}{{2.4.12}{91}}
\newlabel{2.4.13}{{2.4.13}{91}}
\newlabel{2.4.14}{{2.4.14}{92}}
\newlabel{coro2.4.29}{{2.4.29}{92}}
\newlabel{2.4.15}{{2.4.15}{92}}
\newlabel{2.4.16}{{2.4.16}{92}}
\newlabel{2.4.17}{{2.4.17}{92}}
\@writefile{toc}{\contentsline {subsection}{\numberline {2.4.2}Martingalas cuadrado integrables}{93}}
\newlabel{subsec2.4.2}{{2.4.2}{93}}
\newlabel{def2.4.30}{{2.4.30}{93}}
\newlabel{lema2.4.31}{{2.4.31}{93}}
\newlabel{2.4.18}{{2.4.18}{93}}
\newlabel{2.4.19}{{2.4.19}{93}}
\newlabel{2.4.20}{{2.4.20}{94}}
\newlabel{prob2.4.32}{{2.4.32}{95}}
\newlabel{prop2.4.33}{{2.4.33}{95}}
\newlabel{2.4.21}{{2.4.21}{95}}
\newlabel{2.4.22}{{2.4.22}{95}}
\newlabel{def2.4.34}{{2.4.34}{96}}
\newlabel{2.4.23}{{2.4.23}{96}}
\newlabel{prop2.4.35}{{2.4.35}{96}}
\newlabel{2.4.24}{{2.4.24}{97}}
\newlabel{prob2.4.36}{{2.4.36}{98}}
\newlabel{def2.4.37}{{2.4.37}{98}}
\newlabel{2.4.25}{{2.4.25}{98}}
\newlabel{2.4.26}{{2.4.26}{98}}
\newlabel{prop2.4.38}{{2.4.38}{98}}
\newlabel{2.4.27}{{2.4.27}{98}}
\@writefile{toc}{\contentsline {section}{\numberline {2.5}Martingalas en espacios de Hilbert}{98}}
\newlabel{sec2.5}{{2.5}{98}}
\newlabel{def2.5.1}{{2.5.1}{98}}
\newlabel{2.5.1}{{2.5.28}{98}}
\newlabel{prop2.5.2}{{2.5.2}{98}}
\newlabel{2.5.2}{{2.5.29}{99}}
\newlabel{prob2.5.3}{{2.5.3}{99}}
\newlabel{prob2.5.4}{{2.5.4}{99}}
\newlabel{prop2.5.5}{{2.5.5}{99}}
\newlabel{prop2.5.6}{{2.5.6}{100}}
\newlabel{2.5.3}{{2.5.30}{100}}
\newlabel{2.5.4}{{2.5.31}{100}}
\newlabel{obs2.5.7}{{2.5.7}{100}}
\newlabel{2.5.5}{{2.5.32}{100}}
\newlabel{def2.5.8}{{2.5.8}{100}}
\newlabel{2.5.6}{{2.5.33}{100}}
\newlabel{prop2.5.9}{{2.5.9}{100}}
\newlabel{def2.5.10}{{2.5.10}{101}}
\newlabel{teo2.5.11}{{2.5.11}{101}}
\newlabel{def2.5.12}{{2.5.12}{101}}
\newlabel{obs2.5.13}{{2.5.13}{101}}
\newlabel{2.5.7}{{2.5.34}{101}}
\newlabel{2.5.8}{{2.5.35}{102}}
\newlabel{2.5.9}{{2.5.36}{102}}
\newlabel{coro2.5.14}{{2.5.14}{102}}
\newlabel{2.5.10}{{2.5.37}{102}}
\newlabel{def2.5.15}{{2.5.15}{103}}
\newlabel{teo2.5.16}{{2.5.16}{103}}
\newlabel{teo2.5.17}{{2.5.17}{103}}
\newlabel{2.5.11}{{2.5.38}{103}}
\newlabel{2.5.12}{{2.5.39}{103}}
\@setckpt{tudor02}{
\setcounter{page}{104}
\setcounter{equation}{39}
\setcounter{enumi}{3}
\setcounter{enumii}{0}
\setcounter{enumiii}{0}
\setcounter{enumiv}{0}
\setcounter{footnote}{0}
\setcounter{mpfootnote}{0}
\setcounter{part}{0}
\setcounter{chapter}{2}
\setcounter{section}{5}
\setcounter{subsection}{0}
\setcounter{subsubsection}{0}
\setcounter{paragraph}{0}
\setcounter{subparagraph}{0}
\setcounter{figure}{0}
\setcounter{table}{0}
\setcounter{parentequation}{0}
\setcounter{lips@count}{0}
\setcounter{teo}{17}
\setcounter{ejemplos}{0}
}
