\relax 
\providecommand*\tocstyle@set@width[4]{}
\catcode `"\active 
\select@language{spanish}
\@writefile{toc}{\select@language{spanish}}
\@writefile{lof}{\select@language{spanish}}
\@writefile{lot}{\select@language{spanish}}
\tocstyle@set@width {unum}{toc}{}{12.28583pt}
\tocstyle@set@width {num}{toc}{0}{12.28583pt}
\tocstyle@set@width {skip}{toc}{0}{0.0pt}
\@input{apendiceA.aux}
\@input{apendiceC.aux}
\@input{apendiceD.aux}
\@input{apendiceE.aux}
\@input{apendiceF.aux}
\@input{apendiceG.aux}
\@input{apendiceH.aux}
\@input{apendiceI.aux}
\@input{apendiceJ.aux}
