\relax 
\@writefile{toc}{\contentsline {chapter}{\numberline {4}La integral estoc\IeC {\'a}stica}{229}}
\@writefile{lof}{\addvspace {10\p@ }}
\@writefile{lot}{\addvspace {10\p@ }}
\newlabel{chapter4}{{4}{229}}
\@writefile{toc}{\contentsline {section}{\numberline {4.1}La integral estoc\IeC {\'a}stica con respecto a una semimartingala continua}{230}}
\newlabel{section4.1}{{4.1}{230}}
\@writefile{toc}{\contentsline {subsection}{\numberline {4.1.1}La integral estoc\IeC {\'a}stica con respecto a una martingala continua cuadrado integrable}{230}}
\newlabel{subsection4.1.1}{{4.1.1}{230}}
\newlabel{obs4.1.1}{{4.1.1}{230}}
\newlabel{eq:4.1.1}{{4.1.1}{230}}
\newlabel{eq:4.1.2}{{4.1.2}{230}}
\newlabel{eq:4.1.3}{{4.1.3}{231}}
\newlabel{eq:4.1.4}{{4.1.4}{231}}
\newlabel{eq:4.1.5}{{4.1.5}{231}}
\newlabel{eq:4.1.6}{{4.1.6}{231}}
\newlabel{eq:4.1.7}{{4.1.7}{231}}
\newlabel{eq:4.1.8}{{4.1.8}{231}}
\newlabel{eq:4.1.9}{{4.1.9}{231}}
\newlabel{obs4.1.2}{{4.1.2}{232}}
\newlabel{eq:4.1.10}{{4.1.10}{232}}
\newlabel{eq:4.1.11}{{4.1.11}{232}}
\newlabel{eq:4.1.12}{{4.1.12}{232}}
\newlabel{eq:4.1.13}{{4.1.13}{232}}
\newlabel{obs4.1.3}{{4.1.3}{232}}
\newlabel{obs4.1.4}{{4.1.4}{233}}
\newlabel{obs4.1.5}{{4.1.5}{233}}
\newlabel{eq:4.1.14}{{4.1.14}{233}}
\newlabel{eq:4.1.15}{{4.1.15}{233}}
\newlabel{prob4.1.6}{{4.1.6}{233}}
\newlabel{eq:4.1.16}{{4.1.16}{233}}
\newlabel{prop4.1.7}{{4.1.7}{233}}
\newlabel{eq:4.1.17}{{4.1.17}{234}}
\newlabel{eq:4.1.18}{{4.1.18}{234}}
\newlabel{eq:4.1.19}{{4.1.19}{234}}
\newlabel{eq:4.1.20}{{4.1.20}{234}}
\newlabel{eq:4.1.21}{{4.1.21}{234}}
\newlabel{eq:4.1.22}{{4.1.22}{234}}
\newlabel{eq:4.1.23}{{4.1.23}{235}}
\newlabel{eq:4.1.24}{{4.1.24}{235}}
\newlabel{eq:4.1.25}{{4.1.25}{235}}
\newlabel{eq:4.1.26}{{4.1.26}{235}}
\newlabel{eq:4.1.27}{{4.1.27}{236}}
\newlabel{eq:4.1.28}{{4.1.28}{237}}
\newlabel{eq:4.1.29}{{4.1.29}{237}}
\newlabel{teo4.1.8}{{4.1.8}{237}}
\newlabel{eq:4.1.30}{{4.1.30}{237}}
\newlabel{eq:4.1.31}{{4.1.31}{237}}
\newlabel{eq:4.1.32}{{4.1.32}{237}}
\newlabel{eq:4.1.33}{{4.1.33}{238}}
\newlabel{eq:4.1.34}{{4.1.34}{238}}
\newlabel{eq:4.1.35}{{4.1.35}{238}}
\newlabel{eq:4.1.36}{{4.1.36}{238}}
\newlabel{eq:4.1.37}{{4.1.37}{239}}
\newlabel{eq:4.1.38}{{4.1.38}{240}}
\newlabel{eq:4.1.39}{{4.1.39}{241}}
\newlabel{eq:4.1.40}{{4.1.40}{241}}
\newlabel{eq:4.1.41}{{4.1.41}{241}}
\newlabel{eq:4.1.42}{{4.1.42}{241}}
\newlabel{eq:4.1.43}{{4.1.43}{242}}
\newlabel{prop4.1.9}{{4.1.9}{243}}
\newlabel{prob4.1.10}{{4.1.10}{243}}
\newlabel{teo4.1.11}{{4.1.11}{244}}
\newlabel{eq:4.1.44}{{4.1.44}{244}}
\newlabel{def4.1.12}{{4.1.12}{244}}
\newlabel{prop4.1.13}{{4.1.13}{245}}
\newlabel{prop4.1.14}{{4.1.14}{245}}
\newlabel{eq:4.1.45}{{4.1.45}{245}}
\newlabel{eq:4.1.46}{{4.1.46}{245}}
\newlabel{prob4.1.15}{{4.1.15}{245}}
\newlabel{eq:4.1.47}{{4.1.47}{245}}
\newlabel{prop4.1.16}{{4.1.16}{245}}
\newlabel{eq:4.1.48}{{4.1.48}{245}}
\newlabel{eq:4.1.49}{{4.1.49}{245}}
\newlabel{eq:4.1.50}{{4.1.50}{246}}
\newlabel{eq:4.1.51}{{4.1.51}{247}}
\newlabel{eq:4.1.52}{{4.1.52}{247}}
\newlabel{eq:4.1.53}{{4.1.53}{247}}
\newlabel{eq:4.1.54}{{4.1.54}{247}}
\newlabel{prob4.1.17}{{4.1.17}{248}}
\newlabel{prob4.1.18}{{4.1.18}{248}}
\newlabel{eq:4.1.55}{{4.1.55}{248}}
\newlabel{prob4.1.19}{{4.1.19}{248}}
\newlabel{eq:4.1.56}{{4.1.56}{248}}
\newlabel{def4.1.20}{{4.1.20}{249}}
\newlabel{eq:4.1.57}{{4.1.57}{249}}
\newlabel{prop4.1.21}{{4.1.21}{249}}
\newlabel{eq_4.1.58}{{4.1.58}{249}}
\newlabel{eq:4.1.59}{{4.1.59}{249}}
\newlabel{eq:4.1.60}{{4.1.60}{249}}
\newlabel{eq:4.1.61}{{4.1.61}{249}}
\newlabel{eq:4.1.62}{{4.1.62}{249}}
\newlabel{prob4.1.22}{{4.1.22}{250}}
\newlabel{eq:4.1.63}{{4.1.63}{250}}
\newlabel{eq:4.1.64}{{4.1.64}{250}}
\@writefile{toc}{\contentsline {subsection}{\numberline {4.1.2}Integral estoc\IeC {\'a}stica con respecto a una semimartingala continua}{250}}
\newlabel{subsection4.1.2}{{4.1.2}{250}}
\newlabel{eq:4.1.65}{{4.1.65}{250}}
\newlabel{eq:4.1.66}{{4.1.66}{251}}
\newlabel{eq:4.1.67}{{4.1.67}{251}}
\newlabel{eq:4.1.68}{{4.1.68}{251}}
\newlabel{eq:4.1.69}{{4.1.69}{251}}
\newlabel{def4.1.23}{{4.1.23}{251}}
\newlabel{prop4.1.24}{{4.1.24}{251}}
\newlabel{eq:4.1.70}{{4.1.70}{251}}
\newlabel{prob4.1.25}{{4.1.25}{251}}
\newlabel{prop4.1.26}{{4.1.26}{252}}
\newlabel{eq:4.1.71}{{4.1.71}{252}}
\newlabel{eq:4.1.72}{{4.1.72}{252}}
\newlabel{eq:4.1.73}{{4.1.73}{252}}
\newlabel{prop4.1.27}{{4.1.27}{253}}
\newlabel{eq:4.1.74}{{4.1.74}{253}}
\newlabel{prob4.1.28}{{4.1.28}{253}}
\newlabel{prop4.1.29}{{4.1.29}{253}}
\newlabel{eq:4.1.75}{{4.1.75}{253}}
\newlabel{eq:4.1.76}{{4.1.76}{253}}
\newlabel{teo4.1.30}{{4.1.30}{254}}
\newlabel{eq:4.1.77}{{4.1.77}{254}}
\newlabel{eq:4.1.78}{{4.1.78}{254}}
\newlabel{prob4.1.31}{{4.1.31}{254}}
\newlabel{eq:4.1.79}{{4.1.79}{254}}
\newlabel{prob4.1.32}{{4.1.32}{254}}
\newlabel{eq:4.1.80}{{4.1.80}{254}}
\newlabel{prop4.1.33}{{4.1.33}{254}}
\newlabel{eq:4.1.81}{{4.1.81}{255}}
\newlabel{eq:4.1.82}{{4.1.82}{255}}
\newlabel{eq:4.1.83}{{4.1.83}{255}}
\newlabel{teo4.1.34}{{4.1.34}{255}}
\newlabel{eq:4.1.84}{{4.1.84}{256}}
\newlabel{eq:4.1.85}{{4.1.85}{256}}
\newlabel{eq:4.1.86}{{4.1.86}{256}}
\newlabel{eq:4.1.87}{{4.1.87}{256}}
\newlabel{eq:4.1.88}{{4.1.88}{256}}
\newlabel{eq:4.1.89}{{4.1.89}{256}}
\newlabel{def4.1.35}{{4.1.35}{258}}
\newlabel{eq:4.1.90}{{4.1.90}{258}}
\newlabel{lema4.1.36}{{4.1.36}{258}}
\newlabel{notacion4.1.37}{{4.1.37}{258}}
\newlabel{eq:4.1.91}{{4.1.91}{258}}
\newlabel{def4.1.38}{{4.1.38}{258}}
\newlabel{eq:4.1.92}{{4.1.92}{258}}
\newlabel{teo4.1.39}{{4.1.39}{259}}
\newlabel{eq:4.1.93}{{4.1.93}{259}}
\newlabel{obs4.1.40}{{4.1.40}{259}}
\newlabel{prop4.1.41}{{4.1.41}{259}}
\newlabel{eq:4.1.94}{{4.1.94}{259}}
\newlabel{eq:4.1.95}{{4.1.95}{259}}
\newlabel{obs}{{4.1.42}{259}}
\newlabel{def4.1.43}{{4.1.43}{259}}
\newlabel{eq:4.1.96}{{4.1.96}{259}}
\newlabel{eq:4.1.97}{{4.1.97}{259}}
\newlabel{obs4.1.44}{{4.1.44}{260}}
\newlabel{eq:4.1.98}{{4.1.98}{260}}
\newlabel{teo4.1.45}{{4.1.45}{260}}
\newlabel{eq:4.1.99}{{4.1.99}{260}}
\newlabel{eq:4.1.100}{{4.1.100}{260}}
\newlabel{coro4.1.46}{{4.1.46}{260}}
\newlabel{eq:4.1.101}{{4.1.101}{260}}
\newlabel{eq:4.1.102}{{4.1.102}{260}}
\newlabel{eq:4.1.103}{{4.1.103}{261}}
\newlabel{eq:4.1.104}{{4.1.104}{261}}
\newlabel{obs4.1.47}{{4.1.47}{261}}
\newlabel{eq:4.1.105}{{4.1.105}{261}}
\newlabel{obs4.1.48}{{4.1.48}{261}}
\newlabel{obs4.1.49}{{4.1.49}{261}}
\newlabel{prob4.1.50}{{4.1.50}{261}}
\newlabel{eq:4.1.106}{{4.1.106}{261}}
\newlabel{prob4.1.51}{{4.1.51}{262}}
\newlabel{eq:4.1.107}{{4.1.107}{262}}
\newlabel{eq:4.1.108}{{4.1.108}{262}}
\newlabel{prob4.1.52}{{4.1.52}{262}}
\newlabel{eq:4.1.109}{{4.1.109}{262}}
\newlabel{prop4.1.53}{{4.1.53}{262}}
\newlabel{eq:4.1.110}{{4.1.110}{262}}
\newlabel{prob4.1.54}{{4.1.54}{263}}
\newlabel{eq:4.1.111}{{4.1.111}{263}}
\newlabel{eq:4.1.112}{{4.1.112}{263}}
\newlabel{eq:4.1.113}{{4.1.113}{263}}
\newlabel{eq:4.1.114}{{4.1.114}{263}}
\newlabel{prob4.1.55}{{4.1.55}{263}}
\newlabel{eq:4.1.115}{{4.1.115}{263}}
\newlabel{prob4.1.56}{{4.1.56}{263}}
\newlabel{def4.1.57}{{4.1.57}{263}}
\newlabel{def4.1.58}{{4.1.58}{264}}
\newlabel{obs4.1.59}{{4.1.59}{264}}
\newlabel{com4.1.60}{{4.1.60}{264}}
\newlabel{teo.4.1.61}{{4.1.61}{264}}
\newlabel{eq:4.1.116}{{4.1.116}{264}}
\newlabel{obs4.1.62}{{4.1.62}{267}}
\newlabel{def4.1.63}{{4.1.63}{267}}
\newlabel{eq:4.1.117}{{4.1.117}{267}}
\newlabel{obs4.1.64}{{4.1.64}{267}}
\newlabel{eq:4.1.118}{{4.1.118}{267}}
\newlabel{prob4.1.65}{{4.1.65}{267}}
\newlabel{obs4.1.66}{{4.1.66}{267}}
\@writefile{toc}{\contentsline {section}{\numberline {4.2}La f\IeC {\'o}rmula de It\IeC {\^o}}{267}}
\newlabel{section4.2}{{4.2}{267}}
\@writefile{toc}{\contentsline {subsection}{\numberline {4.2.1}Demostraci\IeC {\'o}n de la f\IeC {\'o}rmula de It\IeC {\^o} y ejemplos}{267}}
\newlabel{subsection4.2.1}{{4.2.1}{267}}
\newlabel{teo4.2.1}{{4.2.1}{268}}
\newlabel{eq:4.2.1}{{4.2.1}{268}}
\newlabel{eq:4.2.2}{{4.2.2}{268}}
\newlabel{obs4.2.2}{{4.2.2}{268}}
\newlabel{obs4.2.3}{{4.2.3}{268}}
\newlabel{obs4.2.4}{{4.2.4}{269}}
\newlabel{eq:4.2.3}{{4.2.3}{269}}
\newlabel{eq:4.2.4}{{4.2.4}{269}}
\newlabel{eq:4.2.5}{{4.2.5}{269}}
\newlabel{lema4.2.5}{{4.2.5}{269}}
\newlabel{eq:4.2.6}{{4.2.6}{269}}
\newlabel{eq:4.2.7}{{4.2.7}{269}}
\newlabel{eq:4.2.8}{{4.2.8}{269}}
\newlabel{eq:4.2.9}{{4.2.9}{271}}
\newlabel{eq:4.2.10}{{4.2.10}{271}}
\newlabel{eq:4.2.11}{{4.2.11}{271}}
\newlabel{eq:4.2.12}{{4.2.12}{271}}
\newlabel{eq:4.2.13}{{4.2.13}{271}}
\newlabel{eq:4.2.14}{{4.2.14}{272}}
\newlabel{eq:4.2.15}{{4.2.15}{272}}
\newlabel{eq:4.2.16}{{4.2.16}{272}}
\newlabel{obs4.2.6}{{4.2.6}{273}}
\newlabel{coro4.2.7}{{4.2.7}{273}}
\newlabel{eq:4.2.17}{{4.2.17}{273}}
\newlabel{eq:4.2.18}{{4.2.18}{273}}
\newlabel{obs4.2.8}{{4.2.8}{273}}
\newlabel{prob4.2.9}{{4.2.9}{273}}
\newlabel{def4.2.10}{{4.2.10}{273}}
\newlabel{eq:4.2.19}{{4.2.19}{273}}
\newlabel{coro4.2.11}{{4.2.11}{274}}
\newlabel{eq:4.2.20}{{4.2.20}{274}}
\newlabel{eq:4.2.21}{{4.2.21}{274}}
\newlabel{eq:4.2.22}{{4.2.22}{274}}
\newlabel{eq:4.}{{4.2.23}{274}}
\newlabel{eq:4.2.24}{{4.2.24}{275}}
\newlabel{eq:4.2.25}{{4.2.25}{275}}
\newlabel{eq:4.2.26}{{4.2.26}{275}}
\newlabel{eq:4.2.27}{{4.2.27}{275}}
\newlabel{eq:4.2.28}{{4.2.28}{275}}
\newlabel{eq:4.2.29}{{4.2.29}{275}}
\newlabel{eq:4.2.30}{{4.2.30}{275}}
\newlabel{eq:4.2.31}{{4.2.31}{276}}
\newlabel{eq:4.2.32}{{4.2.32}{276}}
\newlabel{eq:4.2.33}{{4.2.33}{276}}
\newlabel{obs4.2.12}{{4.2.12}{276}}
\newlabel{prob4.2.13}{{4.2.13}{276}}
\newlabel{eq:4.2.34}{{4.2.34}{276}}
\newlabel{obs4.2.14}{{4.2.14}{276}}
\@writefile{toc}{\contentsline {subsection}{\numberline {4.2.2}Aplicaciones de la f\IeC {\'o}rmula de It\IeC {\^o}}{277}}
\newlabel{subsection4.2.2}{{4.2.2}{277}}
\newlabel{teo4.2.15}{{4.2.15}{277}}
\newlabel{eq:4.2.35}{{4.2.35}{277}}
\newlabel{teo4.2.16}{{4.2.16}{278}}
\newlabel{eq:4.2.36}{{4.2.36}{278}}
\newlabel{eq:4.2.37}{{4.2.37}{278}}
\newlabel{obs4.2.17}{{4.2.17}{278}}
\newlabel{coro4.2.18}{{4.2.18}{278}}
\newlabel{eq:4.2.38}{{4.2.38}{278}}
\newlabel{eq:4.2.39}{{4.2.39}{278}}
\newlabel{eq:4.2.40}{{4.2.40}{279}}
\newlabel{eq:4.2.41}{{4.2.41}{279}}
\newlabel{obs4.2.19}{{4.2.19}{280}}
\newlabel{coro4.2.20}{{4.2.20}{280}}
\newlabel{eq:4.2.42}{{4.2.42}{280}}
\newlabel{prob4.2.21}{{4.2.21}{280}}
\newlabel{prob4.2.22}{{4.2.22}{280}}
\newlabel{eq:4.2.43}{{4.2.43}{281}}
\newlabel{obs4.2.23}{{4.2.23}{281}}
\newlabel{prob4.2.24}{{4.2.24}{281}}
\newlabel{eq:4.2.44}{{4.2.44}{281}}
\newlabel{def4.2.25}{{4.2.25}{281}}
\newlabel{eq:4.2.45}{{4.2.45}{281}}
\newlabel{prop4.2.26}{{4.2.26}{281}}
\newlabel{eq:4.2.46}{{4.2.46}{281}}
\newlabel{obs4.2.27}{{4.2.27}{282}}
\newlabel{coro4.2.28}{{4.2.28}{282}}
\newlabel{eq:4.2.47}{{4.2.47}{282}}
\newlabel{eq:4.2.48}{{4.2.48}{282}}
\newlabel{eq:4.2.49}{{4.2.49}{282}}
\newlabel{eq:4.2.50}{{4.2.50}{282}}
\newlabel{teo4.2.29}{{4.2.29}{282}}
\newlabel{eq:4.2.51}{{4.2.51}{283}}
\newlabel{eq:4.2.52}{{4.2.52}{283}}
\newlabel{teo4.2.30}{{4.2.30}{284}}
\newlabel{eq:4.2.53}{{4.2.53}{284}}
\newlabel{eq:4.2.54}{{4.2.54}{284}}
\newlabel{eq:4.2.55}{{4.2.55}{284}}
\newlabel{eq:4.2.56}{{4.2.56}{284}}
\newlabel{eq:4.2.57}{{4.2.57}{285}}
\newlabel{eq:4.2.58}{{4.2.58}{285}}
\newlabel{eq:4.2.59}{{4.2.59}{286}}
\newlabel{eq:4.2.60}{{4.2.60}{286}}
\newlabel{eq:4.2.61}{{4.2.61}{286}}
\newlabel{eq:4.2.62}{{4.2.62}{287}}
\newlabel{eq:4.2.63}{{4.2.63}{287}}
\newlabel{obs4.2.31}{{4.2.31}{287}}
\newlabel{eq:4.2.64}{{4.2.64}{287}}
\newlabel{prob4.2.32}{{4.2.32}{287}}
\newlabel{eq:4.2.65}{{4.2.65}{287}}
\newlabel{prob4.2.33}{{4.2.33}{288}}
\newlabel{prop4.2.34}{{4.2.34}{288}}
\newlabel{eq:4.2.66}{{4.2.66}{288}}
\newlabel{eq:4.2.67}{{4.2.67}{288}}
\newlabel{eq:4.2.68}{{4.2.68}{289}}
\newlabel{eq:4.2.69}{{4.2.69}{289}}
\newlabel{eq:4.2.70}{{4.2.70}{289}}
\newlabel{prob4.2.35}{{4.2.35}{290}}
\@writefile{toc}{\contentsline {section}{\numberline {4.3}Martingalas exponenciales y el teorema de Girsanov}{291}}
\newlabel{section4.3}{{4.3}{291}}
\newlabel{eq:4.3.1}{{4.3.1}{291}}
\newlabel{eq:4.3.2}{{4.3.2}{291}}
\newlabel{eq:4.3.3}{{4.3.3}{291}}
\newlabel{eq:4.3.4}{{4.3.4}{291}}
\newlabel{prop4.3.1}{{4.3.1}{291}}
\newlabel{eq:4.3.5}{{4.3.5}{292}}
\newlabel{eq:4.3.6}{{4.3.6}{292}}
\newlabel{eq:4.3.7}{{4.3.7}{293}}
\newlabel{coro4.3.2}{{4.3.2}{293}}
\newlabel{eq:4.3.8}{{4.3.8}{293}}
\newlabel{prop4.3.3}{{4.3.3}{294}}
\newlabel{eq:4.3.9}{{4.3.9}{294}}
\newlabel{eq:4.3.10}{{4.3.10}{294}}
\newlabel{coro4.3.4}{{4.3.4}{294}}
\newlabel{eq:4.3.11}{{4.3.11}{294}}
\newlabel{obs4.3.5}{{4.3.5}{294}}
\newlabel{coro4.3.6}{{4.3.6}{294}}
\newlabel{eq:4.3.12}{{4.3.12}{294}}
\newlabel{coro4.3.7}{{4.3.7}{295}}
\newlabel{eq:4.3.13}{{4.3.13}{295}}
\newlabel{eq:4.3.14}{{4.3.14}{295}}
\newlabel{eq:4.3.15}{{4.3.15}{295}}
\newlabel{eq:4.3.16}{{4.3.16}{295}}
\newlabel{eq:4.3.17}{{4.3.17}{296}}
\newlabel{eq:4.3.18}{{4.3.18}{296}}
\newlabel{eq:4.3.19}{{4.3.19}{296}}
\newlabel{prob4.3.8}{{4.3.8}{296}}
\newlabel{eq:4.3.20}{{4.3.20}{296}}
\newlabel{eq:4.3.21}{{4.3.21}{296}}
\newlabel{eq:4.3.22}{{4.3.22}{296}}
\newlabel{eq:4.3.23}{{4.3.23}{296}}
\newlabel{obs4.3.9}{{4.3.9}{296}}
\newlabel{eq:4.3.24}{{4.3.24}{296}}
\newlabel{obs4.3.10}{{4.3.10}{297}}
\newlabel{def4.3.11}{{4.3.11}{297}}
\newlabel{eq:4.3.25}{{4.3.25}{297}}
\newlabel{eq:4.3.26}{{4.3.26}{297}}
\newlabel{teo4.3.12}{{4.3.12}{297}}
\newlabel{eq:4.3.227}{{4.3.27}{297}}
\newlabel{prob4.3.13}{{4.3.13}{297}}
\newlabel{eq:4.3.28}{{4.3.28}{297}}
\newlabel{prob4.3.14}{{4.3.14}{298}}
\newlabel{obs4.3.15}{{4.3.15}{298}}
\newlabel{prob4.3.16}{{4.3.16}{298}}
\newlabel{prob4.3.17}{{4.3.17}{298}}
\newlabel{prob4.3.18}{{4.3.18}{298}}
\@writefile{toc}{\contentsline {section}{\numberline {4.4}La integral estoc\IeC {\'a}stica con respecto al Movimiento Browniano infinito dimensional}{299}}
\newlabel{section4.4}{{4.4}{299}}
\newlabel{eq:4.4.1}{{4.4.1}{299}}
\newlabel{eq:4.4.2}{{4.4.2}{299}}
\newlabel{eq:4.4.3}{{4.4.3}{299}}
\newlabel{eq:4.4.4}{{4.4.4}{300}}
\newlabel{eq:4.4.5}{{4.4.5}{300}}
\newlabel{obs4.4.1}{{4.4.1}{300}}
\newlabel{prob4.4.2}{{4.4.2}{300}}
\newlabel{eq:4.4.6}{{4.4.6}{300}}
\newlabel{eq:4.4.7}{{4.4.7}{300}}
\newlabel{teo4.4.3}{{4.4.3}{300}}
\newlabel{eq:4.4.8}{{4.4.8}{300}}
\newlabel{eq:4.4.9}{{4.4.9}{301}}
\newlabel{eq:4.4.10}{{4.4.10}{301}}
\newlabel{eq:4.4.11}{{4.4.11}{301}}
\newlabel{eq:4.4.12}{{4.4.12}{301}}
\newlabel{eq:4.4.13}{{4.4.13}{301}}
\newlabel{eq:4.4.14}{{4.4.14}{301}}
\newlabel{def4.4.4}{{4.4.4}{301}}
\newlabel{eq:4.4.15}{{4.4.15}{302}}
\newlabel{eq:4.4.16}{{4.4.16}{302}}
\newlabel{eq:4.4.17}{{4.4.17}{302}}
\newlabel{eq:4.4.18}{{4.4.18}{303}}
\newlabel{coro4.4.5}{{4.4.5}{303}}
\newlabel{eq:4.4.19}{{4.4.19}{303}}
\newlabel{coro4.4.6}{{4.4.6}{304}}
\newlabel{eq:4.4.20}{{4.4.20}{304}}
\newlabel{eq:4.4.21}{{4.4.21}{304}}
\newlabel{eq:4.4.22}{{4.4.22}{304}}
\newlabel{eq:4.4.23}{{4.4.23}{304}}
\newlabel{obs4.4.7}{{4.4.7}{304}}
\newlabel{proble4.4.8}{{4.4.8}{304}}
\newlabel{eq:4.4.24}{{4.4.24}{304}}
\newlabel{prob4.4.9}{{4.4.9}{304}}
\newlabel{eq:4.4.25}{{4.4.25}{304}}
\newlabel{prop4.4.10}{{4.4.10}{304}}
\newlabel{eq:4.4.26}{{4.4.26}{304}}
\newlabel{eq:4.4.27}{{4.4.27}{304}}
\newlabel{def4.4.11}{{4.4.11}{305}}
\newlabel{obs}{{4.4.12}{305}}
\newlabel{prob4.4.13}{{4.4.13}{305}}
\newlabel{obs4.4.14}{{4.4.14}{305}}
\newlabel{def4.4.15}{{4.4.15}{305}}
\newlabel{com4.4.16}{{4.4.16}{305}}
\newlabel{eq:4.4.28}{{4.4.28}{306}}
\newlabel{eq:4.4.29}{{4.4.29}{306}}
\newlabel{obs4.4.17}{{4.4.17}{306}}
\newlabel{eq:4.4.30}{{4.4.30}{306}}
\newlabel{eq:4.4.31}{{4.4.31}{306}}
\newlabel{eq:4.4.32}{{4.4.32}{307}}
\newlabel{eq:4.4.33}{{4.4.33}{307}}
\newlabel{prob4.4.18}{{4.4.18}{307}}
\newlabel{eq:4.4.34}{{4.4.34}{307}}
\newlabel{eq:4.4.35}{{4.4.35}{307}}
\newlabel{obs4.4.19}{{4.4.19}{307}}
\newlabel{obs4.4.20}{{4.4.20}{307}}
\newlabel{eq:4.4.36}{{4.4.36}{307}}
\newlabel{eq:4.4.37}{{4.4.37}{307}}
\newlabel{teo4.4.21}{{4.4.21}{308}}
\newlabel{eq:4.4.38}{{4.4.38}{308}}
\newlabel{eq:4.4.39}{{4.4.39}{308}}
\newlabel{obs4.4.22}{{4.4.22}{308}}
\newlabel{teo4.4.23}{{4.4.23}{308}}
\newlabel{eq:4.4.40}{{4.4.40}{308}}
\newlabel{eq:4.4.41}{{4.4.41}{308}}
\newlabel{coro4.4.24}{{4.4.24}{309}}
\newlabel{eq:4.4.42}{{4.4.42}{309}}
\newlabel{eq:4.4.43}{{4.4.43}{309}}
\newlabel{obs4.4.25}{{4.4.25}{310}}
\@writefile{toc}{\contentsline {section}{\numberline {4.5}Integrales estoc\IeC {\'a}sticas m\IeC {\'u}ltiples}{310}}
\newlabel{section4.5}{{4.5}{310}}
\@writefile{toc}{\contentsline {subsection}{\numberline {4.5.1}Integrales m\IeC {\'u}ltiples de Wiener-It\IeC {\^o}}{310}}
\newlabel{subsection4.5.2}{{4.5.1}{310}}
\newlabel{eq:4.5.1}{{4.5.1}{310}}
\newlabel{eq:4.5.2}{{4.5.2}{310}}
\newlabel{prop4.5.1}{{4.5.1}{310}}
\newlabel{eq:4.5.3}{{4.5.3}{310}}
\newlabel{eq:4.5.4}{{4.5.4}{310}}
\newlabel{eq:4.5.5}{{4.5.5}{311}}
\newlabel{eq:4.5.6}{{4.5.6}{311}}
\newlabel{def4.5.2}{{4.5.2}{312}}
\newlabel{eq:4.5.7}{{4.5.7}{312}}
\newlabel{def4.5.3}{{4.5.3}{312}}
\newlabel{prop4.5.4}{{4.5.4}{312}}
\newlabel{eq:4.5.8}{{4.5.8}{312}}
\newlabel{eq:4.5.9}{{4.5.9}{312}}
\newlabel{eq:4.5.10}{{4.5.10}{313}}
\newlabel{prob4.5.5}{{4.5.5}{313}}
\newlabel{eq:4.5.11}{{4.5.11}{313}}
\newlabel{obs4.5.6}{{4.5.6}{313}}
\newlabel{eq:4.5.12}{{4.5.12}{313}}
\newlabel{eq:4.5.13}{{4.5.13}{314}}
\newlabel{prob4.5.7}{{4.5.7}{314}}
\newlabel{eq:4.5.14}{{4.5.14}{314}}
\newlabel{eq:4.5.15}{{4.5.15}{314}}
\newlabel{eq:4.5.26}{{4.5.16}{314}}
\newlabel{def4.5.8}{{4.5.8}{314}}
\newlabel{eq:4.5.17}{{4.5.17}{314}}
\newlabel{obs4.5.9}{{4.5.9}{314}}
\newlabel{prop4.5.10}{{4.5.10}{315}}
\newlabel{eq:4.5.18}{{4.5.18}{315}}
\newlabel{eq:4.5.19}{{4.5.19}{315}}
\newlabel{eq:4.5.20}{{4.5.20}{315}}
\newlabel{prob4.5.11}{{4.5.11}{315}}
\newlabel{eq:4.5.21}{{4.5.21}{315}}
\newlabel{eq:4.5.22}{{4.5.22}{315}}
\newlabel{eq:4.5.23}{{4.5.23}{316}}
\newlabel{prop4.5.12}{{4.5.12}{316}}
\newlabel{eq:4.5.24}{{4.5.24}{316}}
\newlabel{eq:4.5.25}{{4.5.25}{316}}
\newlabel{eq:4.5.26}{{4.5.26}{316}}
\newlabel{eq:4.5.27}{{4.5.27}{316}}
\newlabel{eq:4.5.28}{{4.5.28}{316}}
\newlabel{lema4.5.13}{{4.5.13}{317}}
\newlabel{eq:4.5.29}{{4.5.29}{317}}
\newlabel{teo4.5.4}{{4.5.14}{318}}
\newlabel{eq:4.5.30}{{4.5.30}{318}}
\newlabel{eq:4.5.31}{{4.5.31}{318}}
\newlabel{eq:4.5.32}{{4.5.32}{318}}
\newlabel{obs4.5.15}{{4.5.15}{321}}
\newlabel{teo4.5.16}{{4.5.16}{321}}
\newlabel{eq:4.5.33}{{4.5.33}{321}}
\newlabel{eq:4.5.34}{{4.5.34}{321}}
\newlabel{eq:4.5.35}{{4.5.35}{321}}
\newlabel{coro4.5.17}{{4.5.17}{321}}
\newlabel{lema4.5.18}{{4.5.18}{322}}
\newlabel{eq:4.5.36}{{4.5.36}{322}}
\newlabel{lema4.5.19}{{4.5.19}{322}}
\newlabel{eq:4.5.37}{{4.5.37}{322}}
\newlabel{eq:4.5.38}{{4.5.38}{322}}
\newlabel{def4.5.20}{{4.5.20}{323}}
\newlabel{eq:4.5.39}{{4.5.39}{323}}
\newlabel{eq:4.5.40}{{4.5.40}{323}}
\newlabel{eq:4.5.41}{{4.5.41}{324}}
\newlabel{obs4.5.21}{{4.5.21}{324}}
\newlabel{eq:4.5.42}{{4.5.42}{324}}
\newlabel{eq:4.5.43}{{4.5.43}{324}}
\newlabel{prob4.5.22}{{4.5.22}{324}}
\newlabel{eq:4.5.44}{{4.5.44}{324}}
\newlabel{eq:4.5.45}{{4.5.45}{324}}
\newlabel{obs4.5.23}{{4.5.23}{325}}
\newlabel{eq:4.5.46}{{4.5.46}{325}}
\newlabel{eq:4.5.47}{{4.5.47}{325}}
\newlabel{prop4.5.24}{{4.5.24}{325}}
\newlabel{prob4.5.25}{{4.5.25}{325}}
\newlabel{teo4.5.26}{{4.5.26}{325}}
\newlabel{eq:4.5.48}{{4.5.48}{325}}
\newlabel{eq:4.5.49}{{4.5.49}{326}}
\newlabel{prob4.5.27}{{4.5.27}{327}}
\newlabel{obs4.5.28}{{4.5.28}{327}}
\@writefile{toc}{\contentsline {subsection}{\numberline {4.5.2}Integrales estoc\IeC {\'a}sticas m\IeC {\'u}ltiples fraccionarias}{327}}
\newlabel{subsection4.5.1}{{4.5.2}{327}}
\newlabel{eq:4.5.50}{{4.5.50}{327}}
\newlabel{eq:4.5.51}{{4.5.51}{327}}
\newlabel{eq:4.5.52}{{4.5.52}{327}}
\newlabel{lema4.5.29}{{4.5.29}{328}}
\newlabel{eq:4.5.53}{{4.5.53}{328}}
\newlabel{eq:4.5.54}{{4.5.54}{328}}
\newlabel{eq:4.5.56}{{4.5.55}{328}}
\newlabel{eq:4.5.56}{{4.5.56}{329}}
\newlabel{obs4.5.30}{{4.5.30}{330}}
\newlabel{def4.5.31}{{4.5.31}{330}}
\newlabel{eq:4.5.57}{{4.5.57}{330}}
\newlabel{obs4.4.32}{{4.5.32}{331}}
\newlabel{eq:4.5.58}{{4.5.58}{331}}
\newlabel{eq:4.5.59}{{4.5.59}{331}}
\newlabel{eq:4.5.60}{{4.5.60}{331}}
\newlabel{prop4.5.33}{{4.5.33}{331}}
\newlabel{prob4.5.34}{{4.5.34}{331}}
\newlabel{eq:4.5.61}{{4.5.61}{331}}
\newlabel{eq:4.5.62}{{4.5.62}{331}}
\newlabel{prop4.5.35}{{4.5.35}{332}}
\newlabel{eq:4.5.63}{{4.5.63}{332}}
\newlabel{prop4.5.36}{{4.5.36}{332}}
\newlabel{eq:4.5.64}{{4.5.64}{332}}
\newlabel{def4.5.37}{{4.5.37}{332}}
\newlabel{eq:4.5.65}{{4.5.65}{332}}
\newlabel{eq:4.5.66}{{4.5.66}{332}}
\newlabel{eq:4.5.67}{{4.5.67}{333}}
\newlabel{prop4.5.38}{{4.5.38}{333}}
\newlabel{eq:4.5.68}{{4.5.68}{333}}
\newlabel{def4.5.39}{{4.5.39}{334}}
\newlabel{prob4.5.40}{{4.5.40}{334}}
\newlabel{obs4.5.41}{{4.5.41}{334}}
\newlabel{obs4.5.42}{{4.5.42}{334}}
\@setckpt{tudor04}{
\setcounter{page}{335}
\setcounter{equation}{68}
\setcounter{enumi}{3}
\setcounter{enumii}{0}
\setcounter{enumiii}{0}
\setcounter{enumiv}{0}
\setcounter{footnote}{2}
\setcounter{mpfootnote}{0}
\setcounter{part}{0}
\setcounter{chapter}{4}
\setcounter{section}{5}
\setcounter{subsection}{2}
\setcounter{subsubsection}{0}
\setcounter{paragraph}{0}
\setcounter{subparagraph}{0}
\setcounter{figure}{0}
\setcounter{table}{0}
\setcounter{parentequation}{0}
\setcounter{lips@count}{0}
\setcounter{teo}{42}
\setcounter{ejemplos}{3}
}
