\relax 
\@writefile{toc}{\contentsline {chapter}{\numberline {1}Generalidades sobre procesos estoc\IeC {\'a}sticos}{1}}
\@writefile{lof}{\addvspace {10\p@ }}
\@writefile{lot}{\addvspace {10\p@ }}
\newlabel{cap1}{{1}{1}}
\@writefile{toc}{\contentsline {section}{\numberline {1.1}Procesos equivalentes medibles}{2}}
\newlabel{sec1.1.1}{{1.1}{2}}
\newlabel{def1.1.1}{{1.1.1}{2}}
\newlabel{obs1.1.2}{{1.1.2}{2}}
\newlabel{1.1.1}{{1.1.1}{2}}
\newlabel{def1.1.3}{{1.1.3}{2}}
\newlabel{1.1.2}{{1.1.2}{2}}
\newlabel{1.1.3}{{1.1.3}{2}}
\newlabel{def1.1.4}{{1.1.4}{3}}
\newlabel{1.1.4}{{1.1.4}{3}}
\newlabel{1.1.5}{{1.1.5}{3}}
\newlabel{def1.1.5}{{1.1.5}{3}}
\newlabel{obs1.6}{{1.1.6}{3}}
\newlabel{obs1.7}{{1.1.7}{3}}
\newlabel{def1.8}{{1.1.8}{3}}
\newlabel{obs1.9}{{1.1.9}{3}}
\newlabel{ejem1.10}{{1.1.10}{4}}
\newlabel{ejem1.11}{{1.1.11}{4}}
\newlabel{def1.12}{{1.1.12}{4}}
\newlabel{pro1.13}{{1.1.13}{4}}
\newlabel{def1.14}{{1.1.14}{4}}
\citation{9}
\citation{49}
\newlabel{1.15}{{1.1.15}{5}}
\newlabel{obs1.16}{{1.1.16}{5}}
\newlabel{lema1.17}{{1.1.17}{5}}
\newlabel{def1.18}{{1.1.18}{6}}
\newlabel{prop1.19}{{1.1.19}{6}}
\newlabel{prob1.20}{{1.1.20}{7}}
\newlabel{prob1.21}{{1.1.21}{7}}
\newlabel{1.1.6}{{1.1.6}{7}}
\@writefile{toc}{\contentsline {section}{\numberline {1.2}Filtraciones y tiempos de paro}{7}}
\newlabel{sec1.2}{{1.2}{7}}
\newlabel{def2.1}{{1.2.1}{7}}
\newlabel{1.2.1}{{1.2.1}{7}}
\newlabel{def2.2}{{1.2.2}{7}}
\citation{132}
\newlabel{prob2.3}{{1.2.3}{8}}
\newlabel{def2.4}{{1.2.4}{8}}
\newlabel{obs2.5}{{1.2.5}{8}}
\newlabel{prop2.6}{{1.2.6}{8}}
\newlabel{prop2.7}{{1.2.7}{8}}
\newlabel{def2.8}{{1.2.8}{8}}
\newlabel{1.2.2}{{1.2.2}{8}}
\newlabel{1.2.3}{{1.2.3}{9}}
\newlabel{prob2.9}{{1.2.9}{9}}
\newlabel{prob2.10}{{1.2.10}{9}}
\newlabel{1.2.4}{{1.2.4}{9}}
\newlabel{prob2.11}{{1.2.11}{9}}
\newlabel{def2.12}{{1.2.12}{9}}
\newlabel{1.2.5}{{1.2.5}{9}}
\newlabel{prop2.13}{{1.2.13}{10}}
\newlabel{prop2.14}{{1.2.14}{10}}
\citation{12}
\citation{30}
\citation{31}
\citation{46}
\citation{130}
\citation{162}
\newlabel{coro2.15}{{1.2.15}{13}}
\newlabel{prob2.16}{{1.2.16}{13}}
\newlabel{def2.17}{{1.2.17}{13}}
\newlabel{1.2.6}{{1.2.6}{13}}
\newlabel{teo2.18}{{1.2.18}{13}}
\newlabel{def2.19}{{1.2.19}{13}}
\newlabel{1.2.7}{{1.2.7}{13}}
\newlabel{1.2.8}{{1.2.8}{14}}
\newlabel{prop2.20}{{1.2.20}{14}}
\newlabel{prop2.21}{{1.2.21}{14}}
\newlabel{1.2.9}{{1.2.9}{14}}
\newlabel{1.2.10}{{1.2.10}{14}}
\newlabel{1.2.11}{{1.2.11}{14}}
\newlabel{1.2.12}{{1.2.12}{14}}
\newlabel{prop2.22}{{1.2.22}{15}}
\newlabel{1.2.13}{{1.2.13}{15}}
\newlabel{prop2.23}{{1.2.23}{16}}
\@writefile{toc}{\contentsline {section}{\numberline {1.3}La construcci\IeC {\'o}n de Kolmogorov}{17}}
\newlabel{sec1.3}{{1.3}{17}}
\newlabel{1.3.1}{{1.3.1}{17}}
\newlabel{1.3.2}{{1.3.2}{17}}
\newlabel{lema3.1}{{1.3.1}{17}}
\newlabel{def3.2}{{1.3.2}{18}}
\newlabel{def3.3}{{1.3.3}{18}}
\newlabel{1.3.3}{{1.3.3}{18}}
\newlabel{obs3.4}{{1.3.4}{18}}
\newlabel{teo3.5}{{1.3.5}{18}}
\newlabel{1.3.4}{{1.3.4}{18}}
\newlabel{1.3.5}{{1.3.5}{19}}
\newlabel{1.3.6}{{1.3.6}{19}}
\newlabel{1.3.7}{{1.3.7}{19}}
\newlabel{1.3.8}{{1.3.8}{20}}
\newlabel{prob3.6}{{1.3.6}{21}}
\newlabel{teo3.7}{{1.3.7}{21}}
\newlabel{obs3.8}{{1.3.8}{22}}
\newlabel{obs3.9}{{1.3.9}{22}}
\@writefile{toc}{\contentsline {section}{\numberline {1.4}Procesos continuos}{22}}
\newlabel{sec1.4}{{1.4}{22}}
\@writefile{toc}{\contentsline {subsection}{\numberline {1.4.1}El espacio de Wiener}{22}}
\newlabel{obs4.1}{{1.4.1}{23}}
\newlabel{1.4.1}{{1.4.1}{23}}
\newlabel{1.4.2}{{1.4.2}{23}}
\newlabel{1.4.3}{{1.4.3}{23}}
\newlabel{1.4.4}{{1.4.4}{23}}
\newlabel{lema4.2}{{1.4.2}{23}}
\newlabel{1.4.5}{{1.4.5}{23}}
\newlabel{1.4.6}{{1.4.6}{24}}
\newlabel{1.4.7}{{1.4.7}{24}}
\newlabel{proble4.3}{{1.4.3}{24}}
\newlabel{obs4.4}{{1.4.4}{24}}
\newlabel{1.4.8}{{1.4.8}{24}}
\newlabel{1.4.9}{{1.4.9}{24}}
\newlabel{lema4.5}{{1.4.5}{24}}
\newlabel{obs4.6}{{1.4.6}{24}}
\newlabel{proble4.7}{{1.4.7}{24}}
\newlabel{def4.8}{{1.4.8}{25}}
\newlabel{proble4.9}{{1.4.9}{25}}
\@writefile{toc}{\contentsline {subsection}{\numberline {1.4.2}El criterio de continuidad de Kolmogorov}{25}}
\newlabel{1.4.10}{{1.4.10}{25}}
\newlabel{teo1.4.10}{{1.4.10}{25}}
\newlabel{1.4.11}{{1.4.11}{25}}
\newlabel{1.4.12}{{1.4.12}{26}}
\newlabel{1.4.13}{{1.4.13}{26}}
\newlabel{1.4.14}{{1.4.14}{26}}
\newlabel{1.4.15}{{1.4.15}{26}}
\newlabel{1.4.16}{{1.4.16}{26}}
\newlabel{1.4.17}{{1.4.17}{27}}
\newlabel{1.4.18}{{1.4.18}{27}}
\newlabel{1.4.19}{{1.4.19}{28}}
\newlabel{1.4.20}{{1.4.20}{28}}
\newlabel{1.4.21}{{1.4.21}{28}}
\newlabel{1.4.22}{{1.4.22}{28}}
\newlabel{1.4.23}{{1.4.23}{29}}
\newlabel{1.4.24}{{1.4.24}{29}}
\newlabel{1.4.25}{{1.4.25}{29}}
\citation{9}
\citation{49}
\newlabel{coro4.11}{{1.4.11}{30}}
\newlabel{1.4.26}{{1.4.26}{30}}
\newlabel{obs4.12}{{1.4.12}{30}}
\newlabel{proble4.13}{{1.4.13}{30}}
\newlabel{obs4.14}{{1.4.14}{30}}
\newlabel{coro4.15}{{1.4.15}{30}}
\newlabel{1.4.27}{{1.4.27}{30}}
\citation{16}
\citation{49}
\newlabel{obs4.16}{{1.4.16}{31}}
\@writefile{toc}{\contentsline {subsection}{\numberline {1.4.3}Familias uniformemente tensas de probabilidades y convergencia d\IeC {\'e}bil en el espacio de Wiener}{31}}
\newlabel{1.4.28}{{1.4.28}{31}}
\newlabel{obs4.17}{{1.4.17}{31}}
\newlabel{teo4.18}{{1.4.18}{32}}
\newlabel{1.4.29}{{1.4.29}{32}}
\newlabel{1.4.30}{{1.4.30}{32}}
\newlabel{proble4.19}{{1.4.19}{33}}
\newlabel{1.4.31}{{1.4.31}{33}}
\newlabel{1.4.32}{{1.4.32}{33}}
\newlabel{teo4.20}{{1.4.20}{33}}
\newlabel{1.4.33}{{1.4.33}{33}}
\newlabel{1.4.34}{{1.4.34}{34}}
\newlabel{1.4.35}{{1.4.35}{34}}
\newlabel{1.4.36}{{1.4.36}{34}}
\newlabel{1.4.37}{{1.4.37}{34}}
\newlabel{teo4.21}{{1.4.21}{35}}
\newlabel{1.4.38}{{1.4.38}{35}}
\newlabel{1.4.39}{{1.4.39}{35}}
\newlabel{proble4.22}{{1.4.22}{36}}
\newlabel{1.4.40}{{1.4.40}{36}}
\newlabel{1.4.41}{{1.4.41}{36}}
\newlabel{4.23}{{1.4.23}{36}}
\newlabel{1.4.42}{{1.4.42}{36}}
\newlabel{1.4.43}{{1.4.43}{36}}
\@setckpt{tudor01}{
\setcounter{page}{37}
\setcounter{equation}{43}
\setcounter{enumi}{2}
\setcounter{enumii}{0}
\setcounter{enumiii}{0}
\setcounter{enumiv}{0}
\setcounter{footnote}{0}
\setcounter{mpfootnote}{0}
\setcounter{part}{0}
\setcounter{chapter}{1}
\setcounter{section}{4}
\setcounter{subsection}{3}
\setcounter{subsubsection}{0}
\setcounter{paragraph}{0}
\setcounter{subparagraph}{0}
\setcounter{figure}{0}
\setcounter{table}{0}
\setcounter{parentequation}{0}
\setcounter{lips@count}{0}
\setcounter{teo}{23}
\setcounter{ejemplos}{0}
}
